%YAML 1.1
%TAG !u! tag:unity3d.com,2011:
--- !u!114 &11400000
MonoBehaviour:
  m_ObjectHideFlags: 0
  m_PrefabParentObject: {fileID: 0}
  m_PrefabInternal: {fileID: 0}
  m_GameObject: {fileID: 0}
  m_Enabled: 1
  m_EditorHideFlags: 0
  m_Script: {fileID: 11500000, guid: 440bad29e1c6cfd44a8d00451851d4fb, type: 3}
  m_Name: C1_Altura1_003_Part_14_172Points
  m_EditorClassIdentifier: 
  pointsList:
  - {x: 105.40256, y: 1.2094054, z: 5.961279, w: 0.67277455}
  - {x: 105.533714, y: 1.2094054, z: 6.349052, w: 0.7675185}
  - {x: 105.967766, y: 1.2094054, z: 5.695014, w: 0.7145519}
  - {x: 105.976776, y: 1.2094054, z: 6.478767, w: 0.56528854}
  - {x: 105.91356, y: 1.2094054, z: 6.821368, w: 0.82957214}
  - {x: 105.999435, y: 1.2094054, z: 7.413747, w: 0.72052205}
  - {x: 106.707695, y: 1.209405, z: 5.948313, w: 0.5206622}
  - {x: 106.5081, y: 1.2094054, z: 6.505072, w: 0.62629414}
  - {x: 106.41886, y: 1.2094054, z: 6.8833036, w: 0.77377534}
  - {x: 106.29878, y: 1.2094054, z: 7.3347816, w: 0.7711972}
  - {x: 106.98316, y: 1.2094054, z: 5.7951255, w: 0.533125}
  - {x: 107.01223, y: 1.2094054, z: 6.2614737, w: 0.90350246}
  - {x: 106.89915, y: 1.2094054, z: 6.9862013, w: 0.8723072}
  - {x: 107.10895, y: 1.2094054, z: 7.173804, w: 0.5646377}
  - {x: 106.98166, y: 1.2094045, z: 7.869822, w: 0.5513534}
  - {x: 107.45601, y: 1.2094054, z: 5.388535, w: 0.80325353}
  - {x: 107.652306, y: 1.2094054, z: 5.9163465, w: 0.86702406}
  - {x: 107.42921, y: 1.2094054, z: 6.3315935, w: 0.8059821}
  - {x: 107.39496, y: 1.2094054, z: 6.860705, w: 0.6434138}
  - {x: 107.400246, y: 1.2094054, z: 7.1747184, w: 0.78664255}
  - {x: 107.556854, y: 1.209405, z: 7.690215, w: 0.746791}
  - {x: 108.00449, y: 1.2094054, z: 5.468404, w: 0.8705186}
  - {x: 107.86269, y: 1.2094054, z: 5.8512387, w: 0.6513126}
  - {x: 108.02223, y: 1.2094054, z: 6.429039, w: 0.9892783}
  - {x: 107.785835, y: 1.2094054, z: 6.8563333, w: 0.63822305}
  - {x: 108.013214, y: 1.2094054, z: 7.1676292, w: 0.6965076}
  - {x: 108.057014, y: 1.209405, z: 7.7927957, w: 0.577733}
  - {x: 108.49279, y: 1.2094054, z: 4.767733, w: 0.8376153}
  - {x: 108.5084, y: 1.2094054, z: 5.338323, w: 0.9201039}
  - {x: 108.3779, y: 1.2094054, z: 5.681962, w: 0.7094641}
  - {x: 108.43968, y: 1.2094054, z: 6.4524283, w: 0.8894263}
  - {x: 108.59135, y: 1.2094054, z: 6.832616, w: 0.702551}
  - {x: 108.40702, y: 1.2094054, z: 7.3567114, w: 0.5434492}
  - {x: 108.94304, y: 1.2094054, z: 4.6904645, w: 0.6537707}
  - {x: 109.06223, y: 1.2094054, z: 5.1778173, w: 0.92009014}
  - {x: 109.070496, y: 1.2094054, z: 5.9115148, w: 0.77018666}
  - {x: 108.993935, y: 1.2094054, z: 6.555363, w: 0.6943351}
  - {x: 108.966156, y: 1.2094054, z: 6.9724317, w: 0.9926001}
  - {x: 108.832405, y: 1.2094054, z: 7.3313427, w: 0.5432317}
  - {x: 109.51681, y: 1.2094054, z: 4.4401946, w: 0.89286834}
  - {x: 109.56938, y: 1.2094054, z: 4.94525, w: 0.9667841}
  - {x: 109.53777, y: 1.2094054, z: 5.488772, w: 0.9590489}
  - {x: 109.46394, y: 1.2094054, z: 5.8105836, w: 0.74214447}
  - {x: 109.60913, y: 1.2094054, z: 6.3579874, w: 0.5417648}
  - {x: 109.39448, y: 1.2094054, z: 6.805928, w: 0.55082613}
  - {x: 109.488396, y: 1.209405, z: 7.502966, w: 0.88881457}
  - {x: 110.050835, y: 1.2094054, z: 4.2476096, w: 0.5189877}
  - {x: 110.005974, y: 1.2094054, z: 4.951992, w: 0.7682785}
  - {x: 110.19517, y: 1.2094054, z: 5.3180614, w: 0.6569692}
  - {x: 110.0011, y: 1.2094054, z: 5.8847203, w: 0.725759}
  - {x: 110.01078, y: 1.2094054, z: 6.3053923, w: 0.93706596}
  - {x: 109.887535, y: 1.2094054, z: 6.9437885, w: 0.7064321}
  - {x: 109.80157, y: 1.2094054, z: 7.4110374, w: 0.5301199}
  - {x: 110.513, y: 1.2094054, z: 4.1520495, w: 0.69437623}
  - {x: 110.41852, y: 1.2094054, z: 4.8135815, w: 0.5908062}
  - {x: 110.49729, y: 1.2094054, z: 5.348299, w: 0.6031734}
  - {x: 110.47634, y: 1.2094054, z: 6.1017823, w: 0.7183354}
  - {x: 110.60367, y: 1.2094054, z: 6.3337054, w: 0.9402259}
  - {x: 110.47877, y: 1.2094054, z: 6.836312, w: 0.6207023}
  - {x: 110.42315, y: 1.209405, z: 7.4783964, w: 0.8721518}
  - {x: 111.10205, y: 1.2094054, z: 3.8227034, w: 0.6902832}
  - {x: 111.14179, y: 1.2094054, z: 4.2596188, w: 0.94824237}
  - {x: 110.8957, y: 1.2094054, z: 4.728878, w: 0.5423553}
  - {x: 111.16656, y: 1.2094054, z: 5.46596, w: 0.6944634}
  - {x: 111.045616, y: 1.2094054, z: 5.949898, w: 0.98955274}
  - {x: 111.13944, y: 1.2094054, z: 6.3101797, w: 0.9550568}
  - {x: 111.109955, y: 1.2094054, z: 6.9237576, w: 0.6872194}
  - {x: 110.903984, y: 1.2094054, z: 7.347705, w: 0.6445818}
  - {x: 111.57289, y: 1.2094054, z: 3.93936, w: 0.5653903}
  - {x: 111.42024, y: 1.2094054, z: 4.1683474, w: 0.9377996}
  - {x: 111.47246, y: 1.2094054, z: 4.788788, w: 0.87844795}
  - {x: 111.63322, y: 1.2094054, z: 5.351929, w: 0.63408935}
  - {x: 111.66948, y: 1.209405, z: 5.912452, w: 0.85662866}
  - {x: 111.49347, y: 1.2094064, z: 6.5014095, w: 0.81707513}
  - {x: 111.530174, y: 1.2094054, z: 6.849161, w: 0.5509185}
  - {x: 111.62999, y: 1.2094054, z: 7.3128724, w: 0.9125903}
  - {x: 111.778175, y: 1.2094059, z: 3.4209504, w: 0.7651411}
  - {x: 112.135284, y: 1.2094054, z: 4.0216265, w: 0.91184527}
  - {x: 111.999916, y: 1.2094054, z: 4.345099, w: 0.829142}
  - {x: 112.19225, y: 1.2094054, z: 4.814016, w: 0.7885802}
  - {x: 112.1524, y: 1.2094054, z: 5.4682493, w: 0.7578199}
  - {x: 111.87055, y: 1.2094054, z: 5.871946, w: 0.8960351}
  - {x: 111.87295, y: 1.2094064, z: 6.3644733, w: 0.5073028}
  - {x: 112.158325, y: 1.2094054, z: 6.890333, w: 0.54686576}
  - {x: 111.923294, y: 1.2094054, z: 7.2706428, w: 0.6224002}
  - {x: 112.466095, y: 1.2094059, z: 3.3695304, w: 0.73315215}
  - {x: 112.57838, y: 1.2094054, z: 3.9656622, w: 0.6065542}
  - {x: 112.654434, y: 1.209405, z: 4.447601, w: 0.685079}
  - {x: 112.672905, y: 1.2094054, z: 4.830323, w: 0.65780866}
  - {x: 112.57105, y: 1.2094054, z: 5.300953, w: 0.6716826}
  - {x: 112.47477, y: 1.2094054, z: 5.7214537, w: 0.6156174}
  - {x: 112.43901, y: 1.2094054, z: 6.2770023, w: 0.7866212}
  - {x: 112.44634, y: 1.2094054, z: 6.88303, w: 0.6784177}
  - {x: 112.43285, y: 1.2094054, z: 7.288647, w: 0.72991}
  - {x: 113.16697, y: 1.2094059, z: 3.3458047, w: 0.9349338}
  - {x: 112.92761, y: 1.2094054, z: 3.868384, w: 0.9391829}
  - {x: 113.00662, y: 1.2094054, z: 4.3408537, w: 0.71184087}
  - {x: 113.3692, y: 1.2094059, z: 2.883401, w: 0.77383494}
