%YAML 1.1
%TAG !u! tag:unity3d.com,2011:
--- !u!114 &11400000
MonoBehaviour:
  m_ObjectHideFlags: 0
  m_PrefabParentObject: {fileID: 0}
  m_PrefabInternal: {fileID: 0}
  m_GameObject: {fileID: 0}
  m_Enabled: 1
  m_EditorHideFlags: 0
  m_Script: {fileID: 11500000, guid: 440bad29e1c6cfd44a8d00451851d4fb, type: 3}
  m_Name: C1_Altura1_003_Part_28_8Points
  m_EditorClassIdentifier: 
  pointsList:
  - {x: 99.73206, y: 0.83301044, z: 3.199286, w: 0.966983}
  - {x: 99.42806, y: 0.83585024, z: 3.3870745, w: 0.9598649}
  - {x: 99.80709, y: 0.7906549, z: 4.0758457, w: 0.6292776}
  - {x: 100.10748, y: 0.85013986, z: 2.5101547, w: 0.5113128}
  - {x: 100.21096, y: 0.8190365, z: 3.1139455, w: 0.6089227}
  - {x: 99.99051, y: 0.80197406, z: 3.6737895, w: 0.6711277}
  - {x: 100.07735, y: 0.78004813, z: 4.087969, w: 0.9514324}
  - {x: 100.73128, y: 0.8764951, z: 1.4117613, w: 0.89842534}
  - {x: 100.52785, y: 0.8548472, z: 2.0591764, w: 0.57972753}
  - {x: 100.48593, y: 0.8358481, z: 2.5146866, w: 0.71215165}
  - {x: 100.58033, y: 0.81073093, z: 2.9933457, w: 0.77236676}
  - {x: 100.580864, y: 0.79760146, z: 3.6052485, w: 0.8644987}
  - {x: 101.12667, y: 0.8913784, z: 0.75593233, w: 0.9444473}
  - {x: 101.23708, y: 0.87529516, z: 1.0212202, w: 0.6712916}
  - {x: 101.239815, y: 0.85503983, z: 1.4677389, w: 0.65385365}
  - {x: 101.07955, y: 0.8354111, z: 2.034813, w: 0.7531595}
  - {x: 101.095955, y: 0.82320213, z: 2.4971018, w: 0.8577039}
  - {x: 101.01081, y: 0.81956863, z: 3.2251668, w: 0.68209803}
  - {x: 101.62857, y: 0.90266657, z: 0.09190965, w: 0.9238042}
  - {x: 101.44596, y: 0.8922212, z: 0.47393727, w: 0.8731506}
  - {x: 101.58722, y: 0.8565345, z: 1.1481209, w: 0.58829343}
  - {x: 101.64274, y: 0.8505647, z: 1.4909127, w: 0.9300607}
  - {x: 101.57831, y: 0.8480568, z: 2.261968, w: 0.6757897}
  - {x: 101.655, y: 0.8523612, z: 2.5457525, w: 0.5474487}
  - {x: 102.114586, y: 0.9322536, z: -0.964444, w: 0.7822468}
  - {x: 102.13231, y: 0.90365934, z: -0.3455267, w: 0.60106856}
  - {x: 102.08123, y: 0.8934884, z: -0.07805109, w: 0.53349274}
  - {x: 102.03339, y: 0.87539315, z: 0.36232257, w: 0.8175684}
  - {x: 102.224594, y: 0.8803294, z: 1.0090652, w: 0.78264225}
  - {x: 101.92754, y: 0.8654454, z: 1.5386219, w: 0.52929246}
  - {x: 102.19279, y: 0.8797455, z: 1.9858408, w: 0.5064783}
  - {x: 102.235886, y: 1.2094045, z: 4.952204, w: 0.6215378}
  - {x: 102.61196, y: 0.94272757, z: -1.6067028, w: 0.70172095}
  - {x: 102.72658, y: 0.9130895, z: -1.0445545, w: 0.64876294}
  - {x: 102.59635, y: 0.8980429, z: -0.4862013, w: 0.63828707}
  - {x: 102.40436, y: 0.8885522, z: -0.025958538, w: 0.8119228}
  - {x: 102.57804, y: 0.8984041, z: 0.7109492, w: 0.6251365}
  - {x: 102.545944, y: 0.89710116, z: 1.0465636, w: 0.67584324}
  - {x: 102.436485, y: 0.8920319, z: 1.6200466, w: 0.8231652}
  - {x: 102.58986, y: 1.209405, z: 4.5117846, w: 0.843967}
  - {x: 102.43376, y: 1.2094045, z: 5.0382633, w: 0.5896548}
  - {x: 103.13517, y: 0.9616542, z: -2.4575512, w: 0.8557907}
  - {x: 103.13872, y: 0.93128586, z: -1.7876254, w: 0.5360902}
  - {x: 103.04787, y: 0.92110586, z: -0.8912659, w: 0.7141079}
  - {x: 103.08761, y: 0.923398, z: -0.6877799, w: 0.95632327}
  - {x: 103.20505, y: 0.9304006, z: 0.12155485, w: 0.8768548}
  - {x: 102.97426, y: 0.9189215, z: 0.6099162, w: 0.6291212}
  - {x: 103.092865, y: 0.92555785, z: 1.030446, w: 0.6314578}
  - {x: 102.965294, y: 1.209405, z: 3.577331, w: 0.7884772}
  - {x: 103.088776, y: 1.2094045, z: 3.8323965, w: 0.71864545}
  - {x: 102.90117, y: 1.2094045, z: 4.5350733, w: 0.61745924}
  - {x: 103.019585, y: 1.2094045, z: 4.9176183, w: 0.7013962}
  - {x: 103.808464, y: 0.9585347, z: -2.8683352, w: 0.9151734}
  - {x: 103.60277, y: 0.95070577, z: -2.6006029, w: 0.5319205}
  - {x: 103.55936, y: 0.9467268, z: -1.8102804, w: 0.8964779}
  - {x: 103.53629, y: 0.94589734, z: -1.4722068, w: 0.5244476}
  - {x: 103.73318, y: 0.9566519, z: -1.0128208, w: 0.9248692}
  - {x: 103.61505, y: 0.9511082, z: -0.46027493, w: 0.61014277}
  - {x: 103.50425, y: 0.9459207, z: 0.06948078, w: 0.889937}
  - {x: 103.421486, y: 0.94203925, z: 0.4588685, w: 0.8164832}
  - {x: 103.686455, y: 1.2094047, z: 3.1067815, w: 0.6710588}
  - {x: 103.40884, y: 1.2094045, z: 3.5716262, w: 0.6988256}
  - {x: 103.56455, y: 1.2094045, z: 3.8213325, w: 0.78337}
  - {x: 103.45059, y: 1.2094045, z: 4.4538474, w: 0.54757315}
  - {x: 103.69989, y: 1.2094045, z: 5.0167, w: 0.68365955}
  - {x: 103.97753, y: 0.9932127, z: -3.851457, w: 0.68258715}
  - {x: 103.91042, y: 0.9757552, z: -3.4093142, w: 0.9323254}
  - {x: 104.21053, y: 0.9793966, z: -2.9332056, w: 0.79479873}
  - {x: 104.003555, y: 0.96913815, z: -2.4614408, w: 0.76566815}
  - {x: 103.86608, y: 0.96246123, z: -2.0239856, w: 0.5926281}
  - {x: 104.20894, y: 0.98095393, z: -1.4387015, w: 0.7972233}
  - {x: 104.05187, y: 0.97305846, z: -1.1821407, w: 0.5152981}
  - {x: 104.24885, y: 0.98422694, z: -0.3497008, w: 0.57705843}
  - {x: 103.916855, y: 0.9674704, z: 0.1314019, w: 0.896127}
  - {x: 104.31794, y: 1.2094047, z: 2.5895276, w: 0.7579044}
  - {x: 103.94023, y: 1.2094047, z: 3.0560532, w: 0.54728246}
  - {x: 103.90024, y: 1.2094045, z: 3.5451179, w: 0.5866929}
  - {x: 103.97868, y: 1.2094045, z: 4.001404, w: 0.54287076}
  - {x: 104.052284, y: 1.2094045, z: 4.5920806, w: 0.63957846}
  - {x: 104.19814, y: 1.2094045, z: 5.142028, w: 0.7846339}
  - {x: 104.018234, y: 1.2094042, z: 5.5172663, w: 0.9099966}
  - {x: 104.46674, y: 1.0069327, z: -4.558898, w: 0.780975}
  - {x: 104.80551, y: 1.0091667, z: -4.031846, w: 0.97119695}
  - {x: 104.521774, y: 0.99505734, z: -3.42825, w: 0.6183586}
  - {x: 104.72014, y: 1.0058846, z: -2.9728746, w: 0.86687976}
  - {x: 104.57605, y: 0.99902105, z: -2.3916488, w: 0.7436609}
  - {x: 104.597824, y: 1.0005214, z: -2.0575335, w: 0.92305684}
  - {x: 104.61457, y: 1.0018811, z: -1.6131825, w: 0.66398656}
  - {x: 104.69024, y: 1.0066209, z: -0.88401973, w: 0.94224316}
  - {x: 104.60398, y: 1.0025613, z: -0.49064207, w: 0.7775024}
  - {x: 104.54331, y: 1.2094047, z: 1.5864763, w: 0.9583664}
  - {x: 104.72532, y: 1.2094047, z: 2.1230824, w: 0.6305647}
  - {x: 104.54471, y: 1.2094047, z: 2.3864865, w: 0.86841094}
  - {x: 104.59399, y: 1.2094047, z: 2.8290987, w: 0.81208503}
  - {x: 104.55196, y: 1.2094045, z: 3.6819696, w: 0.6369479}
  - {x: 104.49315, y: 1.2094045, z: 4.1533356, w: 0.75477767}
  - {x: 104.57179, y: 1.2094045, z: 4.5869713, w: 0.97394603}
  - {x: 104.574005, y: 1.2094045, z: 5.1966944, w: 0.9967003}
  - {x: 104.39895, y: 1.2094047, z: 5.5099945, w: 0.5561554}
  - {x: 104.58568, y: 1.2094042, z: 6.0426526, w: 0.60251045}
  - {x: 105.12795, y: 1.0287259, z: -5.58706, w: 0.99259514}
  - {x: 105.0549, y: 1.0210042, z: -5.076742, w: 0.8478641}
  - {x: 105.000435, y: 1.0186896, z: -4.6021223, w: 0.5761209}
  - {x: 105.20161, y: 1.0299492, z: -3.886144, w: 0.5086652}
  - {x: 105.0454, y: 1.02249, z: -3.2725377, w: 0.7938229}
  - {x: 104.98659, y: 1.0203083, z: -2.4702954, w: 0.75565743}
  - {x: 105.02054, y: 1.0226033, z: -1.9897807, w: 0.6180872}
  - {x: 105.12475, y: 1.0286803, z: -1.3963337, w: 0.97948694}
  - {x: 105.01105, y: 1.0233047, z: -0.90086985, w: 0.9890152}
  - {x: 105.01241, y: 1.209405, z: 1.039994, w: 0.7057996}
  - {x: 105.13935, y: 1.2094047, z: 1.5652659, w: 0.6890446}
  - {x: 105.0444, y: 1.2094047, z: 1.9865546, w: 0.53109235}
  - {x: 105.290306, y: 1.2094052, z: 2.6474342, w: 0.52305585}
  - {x: 105.18534, y: 1.2094047, z: 3.199298, w: 0.8992688}
  - {x: 105.111534, y: 1.2094045, z: 3.655232, w: 0.7229928}
  - {x: 105.12445, y: 1.2094045, z: 3.968532, w: 0.84968907}
  - {x: 105.00006, y: 1.2094045, z: 4.5681124, w: 0.8052478}
  - {x: 104.9052, y: 1.2094045, z: 5.0179925, w: 0.55320674}
  - {x: 104.92813, y: 1.2094042, z: 5.529009, w: 0.6793611}
  - {x: 105.5113, y: 1.052237, z: -6.424127, w: 0.7278111}
  - {x: 105.731544, y: 1.0552838, z: -5.9407673, w: 0.6804838}
  - {x: 105.57498, y: 1.049772, z: -3.5363493, w: 0.5282872}
  - {x: 105.57632, y: 1.0509412, z: -2.5342977, w: 0.71827066}
  - {x: 105.61373, y: 1.0534503, z: -2.0233142, w: 0.87760955}
  - {x: 105.654274, y: 1.056211, z: -1.4314427, w: 0.7039063}
  - {x: 105.73341, y: 1.209405, z: 0.58796144, w: 0.90356237}
  - {x: 105.588875, y: 1.209405, z: 1.1238382, w: 0.92437565}
  - {x: 105.729614, y: 1.2094047, z: 1.4435155, w: 0.5550616}
  - {x: 105.404175, y: 1.2094054, z: 2.1844654, w: 0.52791625}
  - {x: 105.71589, y: 1.2094052, z: 2.5972614, w: 0.6057854}
  - {x: 105.58219, y: 1.2094047, z: 3.1317368, w: 0.542406}
  - {x: 105.71085, y: 1.2094045, z: 3.5084639, w: 0.9263061}
  - {x: 105.824524, y: 1.2094045, z: 4.0269413, w: 0.5257954}
  - {x: 105.54231, y: 1.2094045, z: 4.419016, w: 0.6239813}
  - {x: 105.922386, y: 1.0640411, z: -7.0246854, w: 0.62941635}
  - {x: 106.18772, y: 1.0784194, z: -6.5004926, w: 0.704376}
  - {x: 106.149734, y: 1.0770226, z: -5.971459, w: 0.90787905}
  - {x: 106.152084, y: 1.07986, z: -3.4978008, w: 0.68706965}
  - {x: 106.09757, y: 1.2094054, z: -0.39159214, w: 0.8229228}
  - {x: 106.20265, y: 1.209405, z: 0.0473938, w: 0.53115106}
  - {x: 106.07447, y: 1.209405, z: 0.551461, w: 0.83191895}
  - {x: 105.91548, y: 1.209405, z: 0.8922305, w: 0.8676606}
  - {x: 105.98254, y: 1.2094047, z: 1.4566956, w: 0.68801963}
  - {x: 105.9449, y: 1.2094047, z: 2.219038, w: 0.8700096}
  - {x: 106.2028, y: 1.2094047, z: 2.572444, w: 0.56576043}
  - {x: 105.91587, y: 1.2094047, z: 3.0258965, w: 0.65617895}
  - {x: 105.98125, y: 1.2094045, z: 3.7108746, w: 0.51386786}
  - {x: 106.4614, y: 1.0909741, z: -8.04406, w: 0.8114065}
  - {x: 106.5796, y: 1.0976129, z: -7.602019, w: 0.54552716}
  - {x: 106.60945, y: 1.0999787, z: -6.862933, w: 0.6546856}
  - {x: 106.5758, y: 1.0985677, z: -6.5517077, w: 0.70376766}
  - {x: 106.43726, y: 1.093566, z: -4.53773, w: 0.98320645}
  - {x: 106.59883, y: 1.1025469, z: -4.019209, w: 0.8377432}
  - {x: 106.584465, y: 1.1025217, z: -3.3606424, w: 0.5676939}
  - {x: 106.34222, y: 1.0903456, z: -2.9634824, w: 0.70875275}
  - {x: 106.60942, y: 1.1049697, z: -2.3140435, w: 0.6694523}
  - {x: 106.59065, y: 1.209405, z: -0.49456096, w: 0.7690139}
  - {x: 106.76768, y: 1.209405, z: -0.033307314, w: 0.9362331}
  - {x: 106.601135, y: 1.2094054, z: 0.55697656, w: 0.6440458}
  - {x: 106.54801, y: 1.209405, z: 1.0004909, w: 0.94121224}
  - {x: 106.57732, y: 1.2094047, z: 1.6912861, w: 0.7669587}
  - {x: 106.79466, y: 1.2094047, z: 2.0372758, w: 0.5573404}
  - {x: 106.533646, y: 1.2094047, z: 2.513102, w: 0.79490626}
  - {x: 107.06464, y: 1.1230872, z: -7.4002075, w: 0.59053797}
  - {x: 107.158875, y: 1.1283922, z: -7.036982, w: 0.98318213}
  - {x: 107.06354, y: 1.1261904, z: -4.5204973, w: 0.61356515}
  - {x: 107.06554, y: 1.1270299, z: -3.850625, w: 0.91233516}
  - {x: 107.093605, y: 1.1289508, z: -3.4321198, w: 0.535896}
  - {x: 107.11445, y: 1.1303682, z: -3.1293645, w: 0.5915545}
  - {x: 106.89567, y: 1.209405, z: -0.44334006, w: 0.77408946}
  - {x: 107.08412, y: 1.209405, z: 0.055277944, w: 0.92750984}
  - {x: 107.25167, y: 1.209405, z: 0.55063844, w: 0.7911321}
  - {x: 106.9994, y: 1.209405, z: 0.9781103, w: 0.910185}
  - {x: 106.869354, y: 1.2094047, z: 1.5501564, w: 0.61303586}
  - {x: 107.56587, y: 1.15236, z: -4.5057154, w: 0.9519362}
  - {x: 107.66706, y: 1.1582217, z: -3.9650316, w: 0.62012774}
  - {x: 107.62692, y: 1.1566434, z: -3.4989843, w: 0.7916039}
  - {x: 107.60602, y: 1.2094052, z: -2.4113262, w: 0.82198143}
  - {x: 107.46543, y: 1.2094052, z: -1.9704373, w: 0.72114027}
  - {x: 107.54291, y: 1.2094054, z: 0.043233395, w: 0.85691166}
  - {x: 107.40981, y: 1.2094054, z: 0.5159178, w: 0.8005371}
  - {x: 108.05299, y: 1.1783803, z: -3.9050875, w: 0.62619233}
  - {x: 108.23602, y: 1.2094054, z: -3.4623942, w: 0.96762645}
  - {x: 108.01866, y: 1.2094059, z: -2.9142647, w: 0.7037333}
  - {x: 108.15488, y: 1.2094057, z: -2.4571881, w: 0.7504661}
  - {x: 108.243195, y: 1.2094052, z: -1.9603183, w: 0.5962444}
  - {x: 108.01669, y: 1.2094052, z: -1.3912857, w: 0.8795766}
  - {x: 108.489624, y: 1.2010648, z: -3.9488401, w: 0.65592813}
  - {x: 108.51504, y: 1.2094054, z: -3.3277323, w: 0.77608526}
  - {x: 108.716034, y: 1.2094054, z: -3.069388, w: 0.8606374}
  - {x: 108.62229, y: 1.2094052, z: -2.518205, w: 0.5457002}
  - {x: 108.73388, y: 1.2094052, z: -1.9281965, w: 0.90832627}
  - {x: 108.58882, y: 1.2094052, z: -1.4681938, w: 0.5554848}
  - {x: 109.068565, y: 1.2094054, z: -2.8754544, w: 0.7713275}
  - {x: 109.09073, y: 1.2094052, z: -2.4776103, w: 0.50890404}
