%YAML 1.1
%TAG !u! tag:unity3d.com,2011:
--- !u!114 &11400000
MonoBehaviour:
  m_ObjectHideFlags: 0
  m_PrefabParentObject: {fileID: 0}
  m_PrefabInternal: {fileID: 0}
  m_GameObject: {fileID: 0}
  m_Enabled: 1
  m_EditorHideFlags: 0
  m_Script: {fileID: 11500000, guid: 440bad29e1c6cfd44a8d00451851d4fb, type: 3}
  m_Name: Islita hundida 1-005_Part_7_248Points
  m_EditorClassIdentifier: 
  pointsList:
  - {x: 89.09601, y: 2.3773303, z: -2.716066, w: 0.61393523}
  - {x: 89.12143, y: 2.3773303, z: -2.2486558, w: 0.64128673}
  - {x: 89.26512, y: 2.3773303, z: -1.754877, w: 0.62740946}
  - {x: 89.572845, y: 2.3346825, z: -4.731426, w: 0.8989037}
  - {x: 89.54577, y: 2.3682175, z: -4.1769958, w: 0.64655113}
  - {x: 89.74867, y: 2.3773303, z: -3.7745771, w: 0.66862524}
  - {x: 89.56824, y: 2.3773303, z: -3.335545, w: 0.86239094}
  - {x: 89.73982, y: 2.3773303, z: -2.756341, w: 0.881632}
  - {x: 89.85186, y: 2.3773303, z: -2.288623, w: 0.8599605}
  - {x: 89.62315, y: 2.3773303, z: -1.8648367, w: 0.5676145}
  - {x: 90.117195, y: 2.3329592, z: -4.7880583, w: 0.84908736}
  - {x: 90.15127, y: 2.3556852, z: -4.4577036, w: 0.8147325}
  - {x: 90.16634, y: 2.3773303, z: -3.9268446, w: 0.5786893}
  - {x: 90.07668, y: 2.3773303, z: -3.281135, w: 0.5153898}
  - {x: 89.947235, y: 2.3773303, z: -2.8034787, w: 0.698347}
  - {x: 90.023705, y: 2.3773303, z: -2.4296987, w: 0.77127266}
  - {x: 90.09086, y: 2.3773303, z: -1.735355, w: 0.79760504}
  - {x: 90.572136, y: 2.3773298, z: -3.7756302, w: 0.6894169}
  - {x: 90.79033, y: 2.3773303, z: -3.360967, w: 0.75313675}
  - {x: 90.48374, y: 2.3773303, z: -2.6588187, w: 0.90990543}
  - {x: 90.591324, y: 2.3773303, z: -2.486321, w: 0.8368141}
  - {x: 90.76784, y: 2.3773303, z: -1.8044909, w: 0.619444}
