%YAML 1.1
%TAG !u! tag:unity3d.com,2011:
--- !u!114 &11400000
MonoBehaviour:
  m_ObjectHideFlags: 0
  m_PrefabParentObject: {fileID: 0}
  m_PrefabInternal: {fileID: 0}
  m_GameObject: {fileID: 0}
  m_Enabled: 1
  m_EditorHideFlags: 0
  m_Script: {fileID: 11500000, guid: 440bad29e1c6cfd44a8d00451851d4fb, type: 3}
  m_Name: Islita hundida 1-005_Part_6_93Points
  m_EditorClassIdentifier: 
  pointsList:
  - {x: 86.20643, y: 2.3394089, z: 1.9174395, w: 0.72478294}
  - {x: 86.0163, y: 2.3235984, z: 2.3186576, w: 0.76722455}
  - {x: 86.72495, y: 2.3657012, z: 1.3968909, w: 0.56007665}
  - {x: 86.60138, y: 2.3483038, z: 2.0885167, w: 0.83902115}
  - {x: 86.66019, y: 2.3445811, z: 2.3157773, w: 0.8720036}
  - {x: 87.125565, y: 2.3773289, z: 1.3261693, w: 0.69648266}
  - {x: 87.11624, y: 2.3703756, z: 1.7774074, w: 0.6710715}
  - {x: 87.35647, y: 2.3672724, z: 2.3126593, w: 0.5985731}
  - {x: 87.80894, y: 2.3773289, z: 0.96204114, w: 0.5452905}
  - {x: 87.562355, y: 2.3773289, z: 1.3907591, w: 0.78472924}
  - {x: 87.68865, y: 2.3773289, z: 2.1067228, w: 0.9944378}
  - {x: 87.68936, y: 2.3696752, z: 2.4186506, w: 0.8904302}
  - {x: 87.607956, y: 2.3331828, z: 2.8013382, w: 0.782724}
  - {x: 88.048805, y: 2.3773286, z: 0.47450888, w: 0.8077569}
  - {x: 88.23048, y: 2.3773289, z: 0.8987919, w: 0.69506335}
  - {x: 88.283455, y: 2.3773286, z: 1.589801, w: 0.8699538}
  - {x: 88.00814, y: 2.3773286, z: 1.851528, w: 0.7296176}
  - {x: 88.21582, y: 2.3694558, z: 2.538658, w: 0.8054601}
  - {x: 88.22387, y: 2.3308802, z: 2.9642189, w: 0.5714657}
  - {x: 88.69807, y: 2.3773289, z: -0.13907194, w: 0.5990301}
  - {x: 88.75992, y: 2.3773286, z: 0.41840506, w: 0.58713686}
  - {x: 88.741356, y: 2.3773286, z: 0.8934609, w: 0.9286855}
  - {x: 88.61374, y: 2.3773286, z: 1.2812004, w: 0.94003767}
  - {x: 88.659546, y: 2.3773286, z: 1.8820753, w: 0.80448127}
  - {x: 88.69259, y: 2.3750143, z: 2.3940115, w: 0.84228176}
  - {x: 88.73864, y: 2.3383374, z: 2.9972887, w: 0.810794}
  - {x: 89.02739, y: 2.3773284, z: -0.57393956, w: 0.6918168}
  - {x: 89.1572, y: 2.3773286, z: -0.09626722, w: 0.801991}
  - {x: 89.09586, y: 2.3773286, z: 0.2947712, w: 0.9290266}
  - {x: 89.256744, y: 2.3773286, z: 0.8211405, w: 0.9262417}
  - {x: 89.155235, y: 2.3773286, z: 1.4683994, w: 0.5539486}
  - {x: 89.1695, y: 2.3773286, z: 1.6543058, w: 0.9880735}
  - {x: 89.05301, y: 2.376319, z: 2.35811, w: 0.9984604}
  - {x: 89.28407, y: 2.3562813, z: 2.8914862, w: 0.8788645}
  - {x: 89.80919, y: 2.3773286, z: -0.6283965, w: 0.6944338}
  - {x: 89.837616, y: 2.3773284, z: 0.06173277, w: 0.5397893}
  - {x: 89.6285, y: 2.3773286, z: 0.6020117, w: 0.89206046}
  - {x: 89.53443, y: 2.3773286, z: 0.8511601, w: 0.9826409}
  - {x: 89.7047, y: 2.3773286, z: 1.3950577, w: 0.8559326}
  - {x: 89.83016, y: 2.3773286, z: 1.8910303, w: 0.8041756}
  - {x: 89.686745, y: 2.3738565, z: 2.421766, w: 0.68359506}
  - {x: 89.538795, y: 2.3614779, z: 2.75218, w: 0.8625098}
  - {x: 89.66995, y: 2.3198385, z: 3.4085402, w: 0.6575632}
  - {x: 90.268906, y: 2.3773284, z: -1.1435933, w: 0.61365837}
  - {x: 90.22892, y: 2.3773284, z: -0.71453476, w: 0.84998834}
  - {x: 90.20498, y: 2.3773286, z: 0.06753051, w: 0.8825725}
  - {x: 90.23509, y: 2.3773286, z: 0.4275725, w: 0.55794036}
  - {x: 90.033195, y: 2.3773284, z: 0.8899965, w: 0.5024499}
  - {x: 90.20795, y: 2.3773286, z: 1.4410692, w: 0.52380544}
  - {x: 90.177155, y: 2.3773286, z: 1.8818386, w: 0.6882304}
  - {x: 90.309944, y: 2.3773286, z: 2.2140865, w: 0.7993729}
  - {x: 89.93671, y: 2.356166, z: 2.8925252, w: 0.71451557}
  - {x: 90.34022, y: 2.3359764, z: 3.380982, w: 0.63389313}
  - {x: 90.71114, y: 2.3773284, z: -1.4775021, w: 0.8548548}
  - {x: 90.87297, y: 2.3773284, z: -1.1595583, w: 0.5078683}
  - {x: 90.49147, y: 2.3773286, z: -0.6013799, w: 0.759326}
  - {x: 90.49229, y: 2.3773284, z: -0.10923982, w: 0.51627254}
  - {x: 90.5781, y: 2.3773284, z: 0.40825582, w: 0.75208163}
  - {x: 90.66776, y: 2.3773289, z: 1.09634, w: 0.6908207}
  - {x: 90.64996, y: 2.3773286, z: 1.6145518, w: 0.63650024}
  - {x: 90.71425, y: 2.3773286, z: 1.9954007, w: 0.8616584}
  - {x: 90.829956, y: 2.3773286, z: 2.3172307, w: 0.9523146}
  - {x: 90.67577, y: 2.3644662, z: 2.6689758, w: 0.80490327}
  - {x: 90.691895, y: 2.3369205, z: 3.4031444, w: 0.9715776}
  - {x: 91.22019, y: 2.3773284, z: -1.2355523, w: 0.98051506}
  - {x: 91.128746, y: 2.3773289, z: -0.78429174, w: 0.99430436}
  - {x: 91.108925, y: 2.3773284, z: -0.11188412, w: 0.8534969}
  - {x: 91.21141, y: 2.3559775, z: 2.893556, w: 0.6641785}
  - {x: 91.08552, y: 2.334577, z: 3.4643674, w: 0.58084965}
