%YAML 1.1
%TAG !u! tag:unity3d.com,2011:
--- !u!114 &11400000
MonoBehaviour:
  m_ObjectHideFlags: 0
  m_PrefabParentObject: {fileID: 0}
  m_PrefabInternal: {fileID: 0}
  m_GameObject: {fileID: 0}
  m_Enabled: 1
  m_EditorHideFlags: 0
  m_Script: {fileID: 11500000, guid: 440bad29e1c6cfd44a8d00451851d4fb, type: 3}
  m_Name: Islita hundida 1-005_Part_4_117Points
  m_EditorClassIdentifier: 
  pointsList:
  - {x: 84.090034, y: 2.3201036, z: -1.808389, w: 0.7427316}
  - {x: 84.553665, y: 2.326079, z: -3.2117634, w: 0.7265812}
  - {x: 84.569244, y: 2.32956, z: -2.7989988, w: 0.8650067}
  - {x: 84.547714, y: 2.331261, z: -2.4565039, w: 0.57853943}
  - {x: 84.69893, y: 2.3372765, z: -1.7719852, w: 0.8605685}
  - {x: 84.681465, y: 2.3355784, z: -1.2888377, w: 0.5884466}
  - {x: 84.56075, y: 2.3310065, z: -0.7712945, w: 0.87132454}
  - {x: 84.54606, y: 2.3294098, z: -0.29884863, w: 0.85970175}
  - {x: 84.95712, y: 2.3235502, z: -3.6981845, w: 0.589164}
  - {x: 85.10979, y: 2.3446865, z: -3.291278, w: 0.9153303}
  - {x: 84.85379, y: 2.3391473, z: -2.8303733, w: 0.83416605}
  - {x: 85.10588, y: 2.3490472, z: -2.0831676, w: 0.92448133}
  - {x: 85.03873, y: 2.346937, z: -1.9658755, w: 0.6202089}
  - {x: 85.179405, y: 2.3487787, z: -1.1965983, w: 0.7432076}
  - {x: 84.88304, y: 2.3395743, z: -0.72096395, w: 0.5016621}
  - {x: 85.023384, y: 2.3423316, z: -0.31561947, w: 0.5375527}
  - {x: 85.55709, y: 2.3043785, z: -4.365603, w: 0.97256887}
  - {x: 85.49052, y: 2.3398745, z: -3.79853, w: 0.8487014}
  - {x: 85.648766, y: 2.363053, z: -3.3216896, w: 0.94791865}
  - {x: 85.41263, y: 2.3579419, z: -2.896841, w: 0.637251}
  - {x: 85.55305, y: 2.362075, z: -2.4623046, w: 0.9271349}
  - {x: 85.57973, y: 2.360489, z: -1.5544603, w: 0.96496904}
  - {x: 85.61286, y: 2.3604705, z: -1.1952354, w: 0.6281179}
  - {x: 85.45283, y: 2.3552003, z: -0.82031274, w: 0.85862243}
  - {x: 86.28581, y: 2.3430023, z: -4.2869954, w: 0.67021394}
  - {x: 86.0931, y: 2.3756013, z: -3.6020617, w: 0.9669707}
  - {x: 86.07937, y: 2.3767803, z: -3.4786634, w: 0.57127064}
  - {x: 86.1892, y: 2.3773315, z: -2.8000433, w: 0.5493415}
  - {x: 85.97412, y: 2.3732214, z: -2.377747, w: 0.82887775}
  - {x: 86.13451, y: 2.3759856, z: -1.7622933, w: 0.59378964}
  - {x: 86.141975, y: 2.3753176, z: -1.4199798, w: 0.58813477}
  - {x: 85.96473, y: 2.36866, z: -0.681751, w: 0.72298205}
  - {x: 86.55847, y: 2.343716, z: -4.307851, w: 0.9055508}
  - {x: 86.61008, y: 2.3657303, z: -3.8809965, w: 0.9164546}
  - {x: 86.51948, y: 2.3773315, z: -3.3177423, w: 0.8867616}
  - {x: 86.60753, y: 2.3773315, z: -2.897389, w: 0.74156487}
  - {x: 86.620224, y: 2.3773317, z: -2.2977827, w: 0.9375229}
  - {x: 86.4161, y: 2.3773317, z: -1.8349581, w: 0.67463195}
  - {x: 86.47644, y: 2.3773317, z: -1.4193753, w: 0.8524886}
  - {x: 86.945175, y: 2.3220656, z: -4.783639, w: 0.9411974}
  - {x: 87.07574, y: 2.3468623, z: -4.3121233, w: 0.6315048}
  - {x: 87.041725, y: 2.361552, z: -4.0185323, w: 0.9420035}
  - {x: 87.123886, y: 2.3773315, z: -3.2433262, w: 0.8846865}
  - {x: 87.03922, y: 2.3773315, z: -2.567164, w: 0.9222297}
  - {x: 87.155914, y: 2.3773315, z: -2.414703, w: 0.6316844}
  - {x: 87.151375, y: 2.3773315, z: -1.6919615, w: 0.7375258}
  - {x: 87.035866, y: 2.3773313, z: -1.071151, w: 0.94735}
  - {x: 87.50592, y: 2.3212943, z: -4.837493, w: 0.7604642}
  - {x: 87.562996, y: 2.351556, z: -4.2820807, w: 0.89668065}
  - {x: 87.56049, y: 2.3651032, z: -4.0150256, w: 0.634361}
  - {x: 87.5512, y: 2.3773313, z: -3.3064835, w: 0.9844917}
  - {x: 87.61939, y: 2.3773315, z: -2.7803392, w: 0.7057972}
  - {x: 87.686455, y: 2.3773315, z: -2.3038154, w: 0.8608064}
  - {x: 87.377556, y: 2.3773315, z: -1.7855818, w: 0.53834885}
  - {x: 87.46953, y: 2.3773315, z: -1.3720812, w: 0.9048486}
  - {x: 88.051956, y: 2.3196697, z: -4.9014816, w: 0.6472323}
  - {x: 88.0445, y: 2.3518293, z: -4.3383465, w: 0.70778394}
  - {x: 87.94131, y: 2.369452, z: -3.9781494, w: 0.9028859}
  - {x: 88.19691, y: 2.3773313, z: -3.2061017, w: 0.68714285}
  - {x: 88.07915, y: 2.3773313, z: -2.735129, w: 0.5716009}
  - {x: 88.11814, y: 2.3773315, z: -2.4142997, w: 0.60731125}
  - {x: 88.15222, y: 2.3773315, z: -1.7977762, w: 0.57832193}
  - {x: 88.69541, y: 2.3362718, z: -4.6596537, w: 0.7643601}
  - {x: 88.49622, y: 2.3531208, z: -4.35779, w: 0.7002717}
  - {x: 88.6552, y: 2.3773315, z: -3.8120356, w: 0.8140436}
  - {x: 88.52181, y: 2.3773315, z: -3.33081, w: 0.57337576}
  - {x: 88.4828, y: 2.3773313, z: -2.739179, w: 0.5355646}
  - {x: 88.44794, y: 2.3773313, z: -2.153214, w: 0.8940264}
  - {x: 88.505455, y: 2.3773315, z: -1.7544281, w: 0.7992916}
  - {x: 89.05285, y: 2.3387983, z: -4.6400304, w: 0.9259768}
  - {x: 89.00942, y: 2.3488407, z: -4.4650993, w: 0.663471}
  - {x: 89.1478, y: 2.3773315, z: -3.373956, w: 0.59185976}
