%YAML 1.1
%TAG !u! tag:unity3d.com,2011:
--- !u!114 &11400000
MonoBehaviour:
  m_ObjectHideFlags: 0
  m_PrefabParentObject: {fileID: 0}
  m_PrefabInternal: {fileID: 0}
  m_GameObject: {fileID: 0}
  m_Enabled: 1
  m_EditorHideFlags: 0
  m_Script: {fileID: 11500000, guid: 440bad29e1c6cfd44a8d00451851d4fb, type: 3}
  m_Name: Islita hundida 1-008_Part_2_197Points
  m_EditorClassIdentifier: 
  pointsList:
  - {x: 119.776955, y: -0.24460673, z: 6.206312, w: 0.8630476}
  - {x: 120.24649, y: -0.2607777, z: 6.056611, w: 0.52108777}
  - {x: 120.206184, y: -0.21238041, z: 6.4583097, w: 0.90892494}
  - {x: 120.52371, y: -0.26378202, z: 6.022357, w: 0.87594384}
  - {x: 120.60044, y: -0.19079804, z: 6.6234508, w: 0.5800146}
  - {x: 121.33535, y: -0.31453967, z: 5.574948, w: 0.8600192}
  - {x: 121.29588, y: -0.24757862, z: 6.130172, w: 0.8921281}
