%YAML 1.1
%TAG !u! tag:unity3d.com,2011:
--- !u!114 &11400000
MonoBehaviour:
  m_ObjectHideFlags: 0
  m_PrefabParentObject: {fileID: 0}
  m_PrefabInternal: {fileID: 0}
  m_GameObject: {fileID: 0}
  m_Enabled: 1
  m_EditorHideFlags: 0
  m_Script: {fileID: 11500000, guid: 440bad29e1c6cfd44a8d00451851d4fb, type: 3}
  m_Name: Islita hundida 1-005_Part_7_139Points
  m_EditorClassIdentifier: 
  pointsList:
  - {x: 78.042854, y: 2.217332, z: 8.507992, w: 0.7847955}
  - {x: 78.19003, y: 2.217332, z: 8.984979, w: 0.83185273}
  - {x: 78.31244, y: 2.2173314, z: 9.617403, w: 0.70456564}
  - {x: 78.40408, y: 2.2173314, z: 10.191521, w: 0.8668725}
  - {x: 78.67936, y: 2.217332, z: 8.588024, w: 0.6580154}
  - {x: 78.57453, y: 2.217332, z: 9.0633335, w: 0.72857904}
  - {x: 78.68643, y: 2.2173314, z: 9.585094, w: 0.6339812}
  - {x: 78.58512, y: 2.2173314, z: 10.266428, w: 0.87455404}
  - {x: 78.96322, y: 2.2173314, z: 9.194564, w: 0.50949544}
  - {x: 79.03932, y: 2.2173314, z: 9.800029, w: 0.52855295}
  - {x: 79.12191, y: 2.2173314, z: 10.266994, w: 0.6028952}
  - {x: 79.68354, y: 2.2173314, z: 9.193101, w: 0.53594506}
  - {x: 79.72632, y: 2.2173314, z: 9.518671, w: 0.6990944}
  - {x: 79.87423, y: 2.2173314, z: 10.17912, w: 0.9265929}
  - {x: 80.039925, y: 2.2173314, z: 9.244363, w: 0.81625}
  - {x: 80.368965, y: 2.204763, z: 9.649636, w: 0.8647184}
  - {x: 80.15366, y: 2.2147136, z: 10.174223, w: 0.86673003}
  - {x: 80.6408, y: 2.1879487, z: 9.687251, w: 0.79147136}
  - {x: 80.819115, y: 2.1697516, z: 10.283422, w: 0.57841134}
