%YAML 1.1
%TAG !u! tag:unity3d.com,2011:
--- !u!114 &11400000
MonoBehaviour:
  m_ObjectHideFlags: 0
  m_PrefabParentObject: {fileID: 0}
  m_PrefabInternal: {fileID: 0}
  m_GameObject: {fileID: 0}
  m_Enabled: 1
  m_EditorHideFlags: 0
  m_Script: {fileID: 11500000, guid: 440bad29e1c6cfd44a8d00451851d4fb, type: 3}
  m_Name: Islita hundida 1-008_Part_1_297Points
  m_EditorClassIdentifier: 
  pointsList:
  - {x: 116.2877, y: 3.8499901, z: 13.821781, w: 0.7118082}
  - {x: 116.27229, y: 3.8472435, z: 14.119425, w: 0.91256815}
  - {x: 116.7624, y: 3.8508852, z: 13.839121, w: 0.90869546}
  - {x: 116.75221, y: 3.8478272, z: 14.102667, w: 0.50592536}
  - {x: 117.42853, y: 3.8507278, z: 13.871531, w: 0.8702191}
  - {x: 117.79371, y: 3.8547194, z: 13.579941, w: 0.75904655}
