%YAML 1.1
%TAG !u! tag:unity3d.com,2011:
--- !u!114 &11400000
MonoBehaviour:
  m_ObjectHideFlags: 0
  m_PrefabParentObject: {fileID: 0}
  m_PrefabInternal: {fileID: 0}
  m_GameObject: {fileID: 0}
  m_Enabled: 1
  m_EditorHideFlags: 0
  m_Script: {fileID: 11500000, guid: 440bad29e1c6cfd44a8d00451851d4fb, type: 3}
  m_Name: Islita hundida 1-005_Part_4_39Points
  m_EditorClassIdentifier: 
  pointsList:
  - {x: 117.90334, y: 3.8416805, z: -1.0977142, w: 0.8237095}
  - {x: 117.79118, y: 3.852191, z: -0.7211299, w: 0.980886}
  - {x: 118.0514, y: 3.8666458, z: -0.14979696, w: 0.6619803}
  - {x: 118.01852, y: 3.8805323, z: 0.36260337, w: 0.5680208}
  - {x: 118.16337, y: 3.887332, z: 0.74819267, w: 0.54461074}
  - {x: 118.579994, y: 3.8349693, z: -1.2601902, w: 0.8688373}
  - {x: 118.46965, y: 3.8485668, z: -0.7685211, w: 0.50716203}
  - {x: 118.54217, y: 3.8614955, z: -0.2781663, w: 0.5112582}
  - {x: 118.62487, y: 3.8770978, z: 0.31297374, w: 0.8972913}
  - {x: 118.421844, y: 3.887332, z: 0.706218, w: 0.7149854}
  - {x: 118.41085, y: 3.887332, z: 1.2928486, w: 0.77779555}
  - {x: 118.50218, y: 3.8873317, z: 1.8660747, w: 0.8337706}
  - {x: 118.62057, y: 3.8873317, z: 2.270412, w: 0.51204944}
  - {x: 118.42237, y: 3.8873315, z: 2.9587247, w: 0.57509196}
  - {x: 118.407074, y: 3.8873315, z: 3.105124, w: 0.5578957}
  - {x: 119.051544, y: 3.831633, z: -1.3235352, w: 0.9357125}
  - {x: 118.92176, y: 3.847294, z: -0.7576046, w: 0.86654055}
  - {x: 118.77479, y: 3.8622515, z: -0.2200545, w: 0.96828216}
  - {x: 118.90497, y: 3.8698392, z: 0.07903087, w: 0.7585261}
  - {x: 118.76822, y: 3.887332, z: 0.764947, w: 0.88967013}
  - {x: 118.727, y: 3.887332, z: 1.2341385, w: 0.51835275}
  - {x: 118.936295, y: 3.8873317, z: 1.6627313, w: 0.80668855}
  - {x: 119.01446, y: 3.8873317, z: 2.46838, w: 0.7915478}
  - {x: 119.045135, y: 3.8873315, z: 2.7085319, w: 0.5209663}
  - {x: 119.18464, y: 3.8873315, z: 3.2539115, w: 0.6146191}
  - {x: 119.279175, y: 3.8471136, z: -0.7182549, w: 0.52664083}
  - {x: 119.30843, y: 3.8580048, z: -0.30927575, w: 0.83789605}
  - {x: 119.30873, y: 3.8716488, z: 0.19838828, w: 0.59793025}
  - {x: 119.352196, y: 3.8855937, z: 0.72280777, w: 0.74883103}
  - {x: 119.385666, y: 3.887332, z: 1.2603221, w: 0.58025277}
  - {x: 119.55978, y: 3.887332, z: 1.6092883, w: 0.7698287}
  - {x: 119.47754, y: 3.8873317, z: 2.2317271, w: 0.770028}
  - {x: 119.383125, y: 3.8873315, z: 2.6627154, w: 0.61927927}
  - {x: 119.60833, y: 3.8873315, z: 3.3810344, w: 0.83540225}
  - {x: 119.480225, y: 3.8873315, z: 3.750376, w: 0.52503014}
  - {x: 119.9253, y: 3.841143, z: -0.7304479, w: 0.864885}
  - {x: 119.865425, y: 3.8568985, z: -0.266204, w: 0.7015053}
  - {x: 119.75694, y: 3.8714955, z: 0.25046015, w: 0.9051402}
  - {x: 119.92949, y: 3.878446, z: 0.5312859, w: 0.83035994}
  - {x: 120.00728, y: 3.887332, z: 1.0713814, w: 0.9575226}
  - {x: 120.024635, y: 3.8873317, z: 1.6815698, w: 0.57581735}
  - {x: 120.017235, y: 3.8873317, z: 2.2069812, w: 0.94795245}
  - {x: 120.00108, y: 3.8873315, z: 2.820126, w: 0.9017462}
  - {x: 120.00068, y: 3.8873315, z: 3.3810067, w: 0.96897507}
  - {x: 119.88425, y: 3.8873315, z: 3.7869642, w: 0.55707616}
  - {x: 120.40247, y: 3.831256, z: -0.8222579, w: 0.5202781}
  - {x: 120.54157, y: 3.848477, z: -0.22201777, w: 0.76906943}
  - {x: 120.36573, y: 3.871961, z: 0.43065065, w: 0.7053107}
  - {x: 120.360054, y: 3.8845341, z: 0.8202161, w: 0.70597863}
  - {x: 120.508995, y: 3.887332, z: 1.0816232, w: 0.5629635}
  - {x: 120.608154, y: 3.887332, z: 1.6132611, w: 0.5641646}
  - {x: 120.4418, y: 3.8873317, z: 2.0926569, w: 0.9171997}
  - {x: 120.45832, y: 3.8873315, z: 2.7802014, w: 0.85202044}
  - {x: 120.47023, y: 3.8873315, z: 3.2897115, w: 0.900219}
  - {x: 120.46274, y: 3.8872669, z: 3.767939, w: 0.5440269}
  - {x: 120.45243, y: 3.8860412, z: 4.129545, w: 0.9797389}
  - {x: 120.99901, y: 3.8324463, z: -0.2621683, w: 0.991764}
  - {x: 121.00799, y: 3.8467598, z: 0.27309936, w: 0.67512715}
  - {x: 120.94967, y: 3.8646755, z: 0.78431416, w: 0.8769296}
  - {x: 121.01162, y: 3.871734, z: 1.1979277, w: 0.55297786}
  - {x: 120.91425, y: 3.873623, z: 1.8326999, w: 0.82762396}
  - {x: 120.71295, y: 3.881937, z: 2.2347894, w: 0.79894185}
  - {x: 120.91946, y: 3.8688412, z: 2.765378, w: 0.8037286}
  - {x: 121.1374, y: 3.8549352, z: 3.2256615, w: 0.8283279}
  - {x: 120.95475, y: 3.859806, z: 3.8513215, w: 0.8970371}
  - {x: 121.12855, y: 3.8468509, z: 4.1719227, w: 0.91131496}
  - {x: 121.35187, y: 3.8168278, z: 0.1787684, w: 0.80638003}
  - {x: 121.411766, y: 3.8392825, z: 0.92586887, w: 0.7112024}
  - {x: 121.4544, y: 3.8424516, z: 1.1371684, w: 0.63570344}
  - {x: 121.41362, y: 3.848586, z: 1.7465173, w: 0.8444649}
  - {x: 121.41702, y: 3.8463326, z: 2.176013, w: 0.9658037}
  - {x: 121.38441, y: 3.8433473, z: 2.9300313, w: 0.8470204}
  - {x: 121.49869, y: 3.8339028, z: 3.2427785, w: 0.96700126}
