%YAML 1.1
%TAG !u! tag:unity3d.com,2011:
--- !u!114 &11400000
MonoBehaviour:
  m_ObjectHideFlags: 0
  m_PrefabParentObject: {fileID: 0}
  m_PrefabInternal: {fileID: 0}
  m_GameObject: {fileID: 0}
  m_Enabled: 1
  m_EditorHideFlags: 0
  m_Script: {fileID: 11500000, guid: 440bad29e1c6cfd44a8d00451851d4fb, type: 3}
  m_Name: Islita hundida 1-008_Part_5_160Points
  m_EditorClassIdentifier: 
  pointsList:
  - {x: 71.12769, y: 2.177761, z: 11.795194, w: 0.6131721}
  - {x: 71.05432, y: 2.178699, z: 12.446605, w: 0.85072845}
  - {x: 71.63205, y: 2.202355, z: 13.681517, w: 0.7696177}
  - {x: 71.517235, y: 2.2024136, z: 14.425468, w: 0.9003007}
