%YAML 1.1
%TAG !u! tag:unity3d.com,2011:
--- !u!114 &11400000
MonoBehaviour:
  m_ObjectHideFlags: 0
  m_PrefabParentObject: {fileID: 0}
  m_PrefabInternal: {fileID: 0}
  m_GameObject: {fileID: 0}
  m_Enabled: 1
  m_EditorHideFlags: 0
  m_Script: {fileID: 11500000, guid: 440bad29e1c6cfd44a8d00451851d4fb, type: 3}
  m_Name: Object006_Part_10_266Points
  m_EditorClassIdentifier: 
  pointsList:
  - {x: 85.6196, y: 1.0998538, z: 9.389614, w: 0.6172306}
  - {x: 85.556564, y: 1.0891781, z: 9.863515, w: 0.8805442}
  - {x: 85.73291, y: 1.1034617, z: 9.246313, w: 0.81143177}
  - {x: 85.84971, y: 1.0920377, z: 9.787287, w: 0.94111}
  - {x: 86.188484, y: 1.1012945, z: 9.428506, w: 0.8960575}
  - {x: 86.36891, y: 1.0886273, z: 10.037671, w: 0.9593198}
  - {x: 86.901505, y: 1.1059015, z: 9.349927, w: 0.9603319}
  - {x: 86.79831, y: 1.0891414, z: 10.09314, w: 0.9378133}
  - {x: 87.16778, y: 1.1077826, z: 9.31325, w: 0.584289}
