%YAML 1.1
%TAG !u! tag:unity3d.com,2011:
--- !u!114 &11400000
MonoBehaviour:
  m_ObjectHideFlags: 0
  m_PrefabParentObject: {fileID: 0}
  m_PrefabInternal: {fileID: 0}
  m_GameObject: {fileID: 0}
  m_Enabled: 1
  m_EditorHideFlags: 0
  m_Script: {fileID: 11500000, guid: 440bad29e1c6cfd44a8d00451851d4fb, type: 3}
  m_Name: Object007_Part_2_167Points
  m_EditorClassIdentifier: 
  pointsList:
  - {x: 89.91324, y: 9.777004, z: 30.389477, w: 0.57749355}
  - {x: 90.06117, y: 9.791983, z: 30.86127, w: 0.78310573}
  - {x: 90.49415, y: 9.781291, z: 30.74496, w: 0.77957296}
  - {x: 90.40613, y: 9.791455, z: 30.988005, w: 0.5975985}
  - {x: 90.49288, y: 9.797208, z: 31.70718, w: 0.8570354}
  - {x: 90.29965, y: 9.7985115, z: 32.00225, w: 0.69329834}
  - {x: 90.546524, y: 9.766287, z: 32.58283, w: 0.8265894}
  - {x: 90.996735, y: 9.767879, z: 31.174501, w: 0.73799884}
