%YAML 1.1
%TAG !u! tag:unity3d.com,2011:
--- !u!114 &11400000
MonoBehaviour:
  m_ObjectHideFlags: 0
  m_PrefabParentObject: {fileID: 0}
  m_PrefabInternal: {fileID: 0}
  m_GameObject: {fileID: 0}
  m_Enabled: 1
  m_EditorHideFlags: 0
  m_Script: {fileID: 11500000, guid: 440bad29e1c6cfd44a8d00451851d4fb, type: 3}
  m_Name: Object007_Part_7_144Points
  m_EditorClassIdentifier: 
  pointsList:
  - {x: 65.57278, y: 10.548204, z: -0.8990929, w: 0.6188949}
  - {x: 65.53324, y: 10.562784, z: -0.5718482, w: 0.86901444}
