%YAML 1.1
%TAG !u! tag:unity3d.com,2011:
--- !u!114 &11400000
MonoBehaviour:
  m_ObjectHideFlags: 0
  m_PrefabParentObject: {fileID: 0}
  m_PrefabInternal: {fileID: 0}
  m_GameObject: {fileID: 0}
  m_Enabled: 1
  m_EditorHideFlags: 0
  m_Script: {fileID: 11500000, guid: 440bad29e1c6cfd44a8d00451851d4fb, type: 3}
  m_Name: Object007_Part_10_65Points
  m_EditorClassIdentifier: 
  pointsList:
  - {x: 75.04331, y: -0.8798666, z: -5.1535506, w: 0.57545245}
  - {x: 74.94395, y: -0.9141419, z: -4.647546, w: 0.67571414}
  - {x: 75.08353, y: -0.92881656, z: -4.3017797, w: 0.9496405}
  - {x: 75.5894, y: -0.82295895, z: -5.723517, w: 0.70608056}
  - {x: 75.53122, y: -0.8673301, z: -5.01851, w: 0.8644625}
  - {x: 75.41912, y: -0.88365245, z: -4.8234673, w: 0.7816286}
  - {x: 75.544106, y: -0.90802217, z: -4.3249946, w: 0.9443332}
  - {x: 76.01541, y: -0.78039026, z: -6.1374435, w: 0.8862226}
  - {x: 75.9852, y: -0.7971189, z: -5.877523, w: 0.8083656}
  - {x: 76.20246, y: -0.8238847, z: -5.273331, w: 0.5842579}
  - {x: 76.105034, y: -0.8648045, z: -4.654192, w: 0.5829772}
