%YAML 1.1
%TAG !u! tag:unity3d.com,2011:
--- !u!114 &11400000
MonoBehaviour:
  m_ObjectHideFlags: 0
  m_PrefabParentObject: {fileID: 0}
  m_PrefabInternal: {fileID: 0}
  m_GameObject: {fileID: 0}
  m_Enabled: 1
  m_EditorHideFlags: 0
  m_Script: {fileID: 11500000, guid: 440bad29e1c6cfd44a8d00451851d4fb, type: 3}
  m_Name: Object006_Part_4_174Points
  m_EditorClassIdentifier: 
  pointsList:
  - {x: 101.68419, y: 2.8255205, z: 9.659096, w: 0.9586198}
  - {x: 101.56533, y: 2.8255203, z: 10.223127, w: 0.70720196}
  - {x: 102.07861, y: 2.8255205, z: 9.684094, w: 0.6315584}
  - {x: 102.075775, y: 2.8255203, z: 10.087525, w: 0.81334543}
  - {x: 101.99505, y: 2.8255203, z: 10.3979845, w: 0.54370356}
  - {x: 102.049805, y: 2.8255203, z: 10.901134, w: 0.70020616}
  - {x: 102.57108, y: 2.8255205, z: 9.63621, w: 0.90506095}
  - {x: 102.73606, y: 2.8255203, z: 10.0709, w: 0.8021842}
  - {x: 102.45302, y: 2.8255203, z: 10.604043, w: 0.7971498}
  - {x: 102.58888, y: 2.8255203, z: 10.924014, w: 0.96690214}
  - {x: 102.670944, y: 2.820733, z: 11.660021, w: 0.87795526}
  - {x: 102.92036, y: 2.8255205, z: 9.6068535, w: 0.8969568}
  - {x: 102.922035, y: 2.8255203, z: 10.088174, w: 0.57563007}
  - {x: 103.04755, y: 2.8255203, z: 10.584389, w: 0.7352896}
  - {x: 103.03334, y: 2.8255203, z: 10.972791, w: 0.89214885}
  - {x: 103.07994, y: 2.8232608, z: 11.580318, w: 0.9954456}
  - {x: 103.07225, y: 2.806842, z: 11.940591, w: 0.60392565}
  - {x: 103.65221, y: 2.8255205, z: 9.70997, w: 0.97588354}
  - {x: 103.64316, y: 2.8255203, z: 10.204955, w: 0.9556245}
  - {x: 103.52235, y: 2.8255203, z: 10.381131, w: 0.54887956}
  - {x: 103.54011, y: 2.82552, z: 11.268049, w: 0.8621715}
  - {x: 103.43922, y: 2.8194375, z: 11.642744, w: 0.74621844}
  - {x: 103.48596, y: 2.7938871, z: 12.199899, w: 0.81141317}
  - {x: 104.004, y: 2.8255205, z: 9.631926, w: 0.6596582}
  - {x: 104.15742, y: 2.8255203, z: 10.081695, w: 0.63345516}
  - {x: 103.84324, y: 2.8255203, z: 10.620249, w: 0.6701273}
  - {x: 103.87101, y: 2.82552, z: 11.074005, w: 0.78924334}
  - {x: 104.07278, y: 2.8150983, z: 11.70018, w: 0.72845864}
  - {x: 104.06276, y: 2.8069882, z: 11.878507, w: 0.8174169}
  - {x: 104.65065, y: 2.8255205, z: 9.500108, w: 0.6962112}
  - {x: 104.538246, y: 2.8255203, z: 10.108879, w: 0.88043296}
  - {x: 104.472626, y: 2.8255203, z: 10.561867, w: 0.8745288}
  - {x: 104.75559, y: 2.8229074, z: 11.054644, w: 0.7234862}
  - {x: 104.69598, y: 2.8097074, z: 11.5958805, w: 0.75879765}
  - {x: 105.06944, y: 2.8147829, z: 9.455192, w: 0.7503549}
  - {x: 105.17576, y: 2.8071845, z: 10.290549, w: 0.7766715}
  - {x: 105.00752, y: 2.8126478, z: 10.807591, w: 0.55272216}
  - {x: 104.99334, y: 2.8125153, z: 11.001729, w: 0.8088552}
  - {x: 105.55144, y: 2.7886615, z: 9.287963, w: 0.8765308}
  - {x: 105.611595, y: 2.7870572, z: 9.761452, w: 0.5465757}
  - {x: 105.52883, y: 2.791748, z: 10.212838, w: 0.81987584}
