%YAML 1.1
%TAG !u! tag:unity3d.com,2011:
--- !u!114 &11400000
MonoBehaviour:
  m_ObjectHideFlags: 0
  m_PrefabParentObject: {fileID: 0}
  m_PrefabInternal: {fileID: 0}
  m_GameObject: {fileID: 0}
  m_Enabled: 1
  m_EditorHideFlags: 0
  m_Script: {fileID: 11500000, guid: 440bad29e1c6cfd44a8d00451851d4fb, type: 3}
  m_Name: Object006_Part_9_152Points
  m_EditorClassIdentifier: 
  pointsList:
  - {x: 84.264496, y: 9.803472, z: 33.109715, w: 0.995574}
  - {x: 84.08265, y: 9.792003, z: 33.592377, w: 0.63767946}
  - {x: 84.22458, y: 9.782632, z: 34.157963, w: 0.8763902}
  - {x: 84.68424, y: 9.777725, z: 31.998634, w: 0.73471594}
  - {x: 84.55998, y: 9.786968, z: 32.36532, w: 0.7298212}
  - {x: 84.647064, y: 9.80552, z: 32.997776, w: 0.7575364}
  - {x: 84.36421, y: 9.799423, z: 33.691593, w: 0.6010139}
  - {x: 84.581314, y: 9.793914, z: 34.05544, w: 0.98026097}
  - {x: 84.641884, y: 9.776217, z: 34.713535, w: 0.89591193}
  - {x: 85.140274, y: 9.779707, z: 31.542055, w: 0.84453315}
  - {x: 85.04473, y: 9.79667, z: 32.094395, w: 0.8589868}
  - {x: 85.06604, y: 9.80552, z: 32.777714, w: 0.7359959}
  - {x: 85.13977, y: 9.80552, z: 32.83931, w: 0.94067675}
  - {x: 85.13008, y: 9.80552, z: 33.529102, w: 0.6901927}
  - {x: 85.04579, y: 9.801576, z: 34.163994, w: 0.7240077}
  - {x: 84.95007, y: 9.7869, z: 34.592747, w: 0.50039923}
  - {x: 85.506195, y: 9.80552, z: 32.035854, w: 0.76344526}
  - {x: 85.602516, y: 9.80552, z: 32.56902, w: 0.8644397}
  - {x: 85.56741, y: 9.80552, z: 33.29404, w: 0.9425578}
