%YAML 1.1
%TAG !u! tag:unity3d.com,2011:
--- !u!114 &11400000
MonoBehaviour:
  m_ObjectHideFlags: 0
  m_PrefabParentObject: {fileID: 0}
  m_PrefabInternal: {fileID: 0}
  m_GameObject: {fileID: 0}
  m_Enabled: 1
  m_EditorHideFlags: 0
  m_Script: {fileID: 11500000, guid: 440bad29e1c6cfd44a8d00451851d4fb, type: 3}
  m_Name: Object006_Part_7_320Points
  m_EditorClassIdentifier: 
  pointsList:
  - {x: 102.68898, y: 2.7983234, z: 12.220871, w: 0.9060727}
  - {x: 102.93062, y: 2.7913315, z: 12.372011, w: 0.75830233}
