%YAML 1.1
%TAG !u! tag:unity3d.com,2011:
--- !u!74 &7400000
AnimationClip:
  m_ObjectHideFlags: 0
  m_PrefabParentObject: {fileID: 0}
  m_PrefabInternal: {fileID: 0}
  m_Name: L2_SuperGolem
  serializedVersion: 6
  m_Legacy: 0
  m_Compressed: 0
  m_UseHighQualityCurve: 1
  m_RotationCurves:
  - curve:
      serializedVersion: 2
      m_Curve:
      - serializedVersion: 2
        time: 0
        value: {x: 0.17126496, y: -0.7511198, z: 0.21422133, w: 0.60049695}
        inSlope: {x: -0.06309718, y: -0.5926859, z: 0.41705486, w: -0.8904826}
        outSlope: {x: -0.06309718, y: -0.5926859, z: 0.41705486, w: -0.8904826}
        tangentMode: 0
      - serializedVersion: 2
        time: 0.016666668
        value: {x: 0.17021334, y: -0.7609979, z: 0.22117224, w: 0.58565557}
        inSlope: {x: -0.05755976, y: -0.5663055, z: 0.42127308, w: -0.877515}
        outSlope: {x: -0.05755976, y: -0.5663055, z: 0.42127308, w: -0.877515}
        tangentMode: 0
      - serializedVersion: 2
        time: 0.033333335
        value: {x: 0.1693463, y: -0.76999664, z: 0.22826377, w: 0.57124645}
        inSlope: {x: -0.05142554, y: -0.5215484, z: 0.42840016, w: -0.85854816}
        outSlope: {x: -0.05142554, y: -0.5215484, z: 0.42840016, w: -0.85854816}
        tangentMode: 0
      - serializedVersion: 2
        time: 0.050000004
        value: {x: 0.16849916, y: -0.77838284, z: 0.23545225, w: 0.5570373}
        inSlope: {x: -0.0552316, y: -0.49227476, z: 0.43270648, w: -0.8539778}
        outSlope: {x: -0.0552316, y: -0.49227476, z: 0.43270648, w: -0.8539778}
        tangentMode: 0
      - serializedVersion: 2
        time: 0.06666667
        value: {x: 0.16750525, y: -0.7864058, z: 0.24268731, w: 0.5427805}
        inSlope: {x: -0.0691031, y: -0.4774708, z: 0.43380576, w: -0.86462265}
        outSlope: {x: -0.0691031, y: -0.4774708, z: 0.43380576, w: -0.86462265}
        tangentMode: 0
      - serializedVersion: 2
        time: 0.083333336
        value: {x: 0.16619572, y: -0.7942985, z: 0.24991244, w: 0.52821654}
        inSlope: {x: -0.093171455, y: -0.4761136, z: 0.43131444, w: -0.8912391}
        outSlope: {x: -0.093171455, y: -0.4761136, z: 0.43131444, w: -0.8912391}
        tangentMode: 0
      - serializedVersion: 2
        time: 0.1
        value: {x: 0.16439953, y: -0.80227625, z: 0.25706446, w: 0.51307255}
        inSlope: {x: -0.12753548, y: -0.4871035, z: 0.42478952, w: -0.9345836}
        outSlope: {x: -0.12753548, y: -0.4871035, z: 0.42478952, w: -0.9345836}
        tangentMode: 0
      - serializedVersion: 2
        time: 0.11666667
        value: {x: 0.16194454, y: -0.8105353, z: 0.2640721, w: 0.49706376}
        inSlope: {x: -0.17222282, y: -0.50921017, z: 0.41367167, w: -0.9954535}
        outSlope: {x: -0.17222282, y: -0.50921017, z: 0.41367167, w: -0.9954535}
        tangentMode: 0
      - serializedVersion: 2
        time: 0.13333334
        value: {x: 0.15865877, y: -0.8192499, z: 0.27085352, w: 0.47989076}
        inSlope: {x: -0.2271415, y: -0.540989, z: 0.39724225, w: -1.0747619}
        outSlope: {x: -0.2271415, y: -0.540989, z: 0.39724225, w: -1.0747619}
        tangentMode: 0
      - serializedVersion: 2
        time: 0.15
        value: {x: 0.15437315, y: -0.8285683, z: 0.2773135, w: 0.46123835}
        inSlope: {x: -0.2920309, y: -0.58069474, z: 0.37456784, w: -1.1735675}
        outSlope: {x: -0.2920309, y: -0.58069474, z: 0.37456784, w: -1.1735675}
        tangentMode: 0
      - serializedVersion: 2
        time: 0.16666667
        value: {x: 0.14892441, y: -0.8386064, z: 0.2833391, w: 0.44077185}
        inSlope: {x: -0.3615685, y: -0.6215233, z: 0.349803, w: -1.2889428}
        outSlope: {x: -0.3615685, y: -0.6215233, z: 0.349803, w: -1.2889428}
        tangentMode: 0
      - serializedVersion: 2
        time: 0.18333334
        value: {x: 0.14232087, y: -0.8492857, z: 0.2889736, w: 0.4182736}
        inSlope: {x: -0.42545828, y: -0.650341, z: 0.32822016, w: -1.4062591}
        outSlope: {x: -0.42545828, y: -0.650341, z: 0.32822016, w: -1.4062591}
        tangentMode: 0
      - serializedVersion: 2
        time: 0.2
        value: {x: 0.13474247, y: -0.86028445, z: 0.29427978, w: 0.39389655}
        inSlope: {x: -0.48063445, y: -0.6615991, z: 0.30564758, w: -1.5124934}
        outSlope: {x: -0.48063445, y: -0.6615991, z: 0.30564758, w: -1.5124934}
        tangentMode: 0
      - serializedVersion: 2
        time: 0.21666667
        value: {x: 0.12629972, y: -0.871339, z: 0.29916185, w: 0.36785716}
        inSlope: {x: -0.52884316, y: -0.6576813, z: 0.27751657, w: -1.6052549}
        outSlope: {x: -0.52884316, y: -0.6576813, z: 0.27751657, w: -1.6052549}
        tangentMode: 0
      - serializedVersion: 2
        time: 0.23333333
        value: {x: 0.117114365, y: -0.88220716, z: 0.30353034, w: 0.34038806}
        inSlope: {x: -0.5694364, y: -0.6400109, z: 0.24431172, w: -1.6835333}
        outSlope: {x: -0.5694364, y: -0.6400109, z: 0.24431172, w: -1.6835333}
        tangentMode: 0
      - serializedVersion: 2
        time: 0.25
        value: {x: 0.10731851, y: -0.8926727, z: 0.30730557, w: 0.3117394}
        inSlope: {x: -0.601851, y: -0.61027026, z: 0.20669991, w: -1.7463033}
        outSlope: {x: -0.601851, y: -0.61027026, z: 0.20669991, w: -1.7463033}
        tangentMode: 0
      - serializedVersion: 2
        time: 0.26666668
        value: {x: 0.097052656, y: -0.9025495, z: 0.31042033, w: 0.28217793}
        inSlope: {x: -0.62562853, y: -0.57035875, z: 0.16548143, w: -1.7925644}
        outSlope: {x: -0.62562853, y: -0.57035875, z: 0.16548143, w: -1.7925644}
        tangentMode: 0
      - serializedVersion: 2
        time: 0.28333336
        value: {x: 0.08646421, y: -0.9116847, z: 0.31282163, w: 0.2519872}
        inSlope: {x: -0.64043677, y: -0.5223633, z: 0.12155582, w: -1.821403}
        outSlope: {x: -0.64043677, y: -0.5223633, z: 0.12155582, w: -1.821403}
        tangentMode: 0
      - serializedVersion: 2
        time: 0.30000004
        value: {x: 0.075704746, y: -0.91996163, z: 0.3144722, w: 0.22146444}
        inSlope: {x: -0.64608705, y: -0.4684957, z: 0.07590109, w: -1.8320353}
        outSlope: {x: -0.64608705, y: -0.4684957, z: 0.07590109, w: -1.8320353}
        tangentMode: 0
      - serializedVersion: 2
        time: 0.31666672
        value: {x: 0.06492796, y: -0.9273012, z: 0.31535167, w: 0.1909193}
        inSlope: {x: -0.64253604, y: -0.41101956, z: 0.029521262, w: -1.8238147}
        outSlope: {x: -0.64253604, y: -0.41101956, z: 0.029521262, w: -1.8238147}
        tangentMode: 0
      - serializedVersion: 2
        time: 0.3333334
        value: {x: 0.05428686, y: -0.9336623, z: 0.31545624, w: 0.16067056}
        inSlope: {x: -0.63921803, y: -0.35896868, z: -0.02589313, w: -1.8192894}
        outSlope: {x: -0.63921803, y: -0.35896868, z: -0.02589313, w: -1.8192894}
        tangentMode: 0
      - serializedVersion: 2
        time: 0.35000008
        value: {x: 0.043620672, y: -0.93926686, z: 0.31448856, w: 0.13027626}
        inSlope: {x: -0.6446702, y: -0.31719065, z: -0.095765516, w: -1.8449577}
        outSlope: {x: -0.6446702, y: -0.31719065, z: -0.095765516, w: -1.8449577}
        tangentMode: 0
      - serializedVersion: 2
        time: 0.36666676
        value: {x: 0.032797836, y: -0.9442353, z: 0.31226406, w: 0.09917192}
        inSlope: {x: -0.6487906, y: -0.27449346, z: -0.16545014, w: -1.8829951}
        outSlope: {x: -0.6487906, y: -0.27449346, z: -0.16545014, w: -1.8829951}
        tangentMode: 0
      - serializedVersion: 2
        time: 0.38333344
        value: {x: 0.021994302, y: -0.94841665, z: 0.30897355, w: 0.0675097}
        inSlope: {x: -0.6431843, y: -0.2233563, z: -0.22319359, w: -1.911415}
        outSlope: {x: -0.6431843, y: -0.2233563, z: -0.22319359, w: -1.911415}
        tangentMode: 0
      - serializedVersion: 2
        time: 0.40000013
        value: {x: 0.011358342, y: -0.95168054, z: 0.30482426, w: 0.035458036}
        inSlope: {x: -0.6296, y: -0.16513988, z: -0.2680651, w: -1.9292865}
        outSlope: {x: -0.6296, y: -0.16513988, z: -0.2680651, w: -1.9292865}
        tangentMode: 0
      - serializedVersion: 2
        time: 0.4166668
        value: {x: 0.0010076183, y: -0.9539213, z: 0.30003804, w: 0.0032000984}
        inSlope: {x: -0.6099392, y: -0.10136953, z: -0.29926455, w: -1.9357895}
        outSlope: {x: -0.6099392, y: -0.10136953, z: -0.29926455, w: -1.9357895}
        tangentMode: 0
      - serializedVersion: 2
        time: 0.4333335
        value: {x: -0.008972983, y: -0.9550595, z: 0.29484877, w: -0.029068334}
        inSlope: {x: -0.5862045, y: -0.033668846, z: -0.31616065, w: -1.9302458}
        outSlope: {x: -0.5862045, y: -0.033668846, z: -0.31616065, w: -1.9302458}
        tangentMode: 0
      - serializedVersion: 2
        time: 0.45000017
        value: {x: -0.018532548, y: -0.9550436, z: 0.28949934, w: -0.061141483}
        inSlope: {x: -0.56043625, y: 0.0362688, z: -0.3183082, w: -1.9121244}
        outSlope: {x: -0.56043625, y: 0.0362688, z: -0.3183082, w: -1.9121244}
        tangentMode: 0
      - serializedVersion: 2
        time: 0.46666685
        value: {x: -0.027654206, y: -0.95385057, z: 0.2842385, w: -0.09280587}
        inSlope: {x: -0.5346601, y: 0.10677329, z: -0.30546314, w: -1.8810804}
        outSlope: {x: -0.5346601, y: 0.10677329, z: -0.30546314, w: -1.8810804}
        tangentMode: 0
      - serializedVersion: 2
        time: 0.48333353
        value: {x: -0.036354568, y: -0.9514845, z: 0.27931723, w: -0.123844214}
        inSlope: {x: -0.5108214, y: 0.17623189, z: -0.27757466, w: -1.836942}
        outSlope: {x: -0.5108214, y: 0.17623189, z: -0.27757466, w: -1.836942}
        tangentMode: 0
      - serializedVersion: 2
        time: 0.5000002
        value: {x: -0.044681586, y: -0.9479762, z: 0.274986, w: -0.15403727}
        inSlope: {x: -0.49426866, y: 0.2446928, z: -0.24127923, w: -1.7961227}
        outSlope: {x: -0.49426866, y: 0.2446928, z: -0.24127923, w: -1.7961227}
        tangentMode: 0
      - serializedVersion: 2
        time: 0.5166668
        value: {x: -0.052830175, y: -0.9433281, z: 0.2712746, w: -0.18371491}
        inSlope: {x: -0.48766887, y: 0.3124115, z: -0.21087012, w: -1.7754457}
        outSlope: {x: -0.48766887, y: 0.3124115, z: -0.21087012, w: -1.7754457}
        tangentMode: 0
      - serializedVersion: 2
        time: 0.5333335
        value: {x: -0.0609372, y: -0.93756247, z: 0.267957, w: -0.21321873}
        inSlope: {x: -0.48430526, y: 0.37671125, z: -0.19120413, w: -1.7591579}
        outSlope: {x: -0.48430526, y: 0.37671125, z: -0.19120413, w: -1.7591579}
        tangentMode: 0
      - serializedVersion: 2
        time: 0.55000013
        value: {x: -0.06897367, y: -0.93077105, z: 0.26490113, w: -0.24235345}
        inSlope: {x: -0.47873062, y: 0.43495458, z: -0.17927456, w: -1.7314932}
        outSlope: {x: -0.47873062, y: 0.43495458, z: -0.17927456, w: -1.7314932}
        tangentMode: 0
      - serializedVersion: 2
        time: 0.5666668
        value: {x: -0.07689487, y: -0.923064, z: 0.2619812, w: -0.27093512}
        inSlope: {x: -0.47000462, y: 0.48604178, z: -0.17466204, w: -1.6931447}
        outSlope: {x: -0.47000462, y: 0.48604178, z: -0.17466204, w: -1.6931447}
        tangentMode: 0
      - serializedVersion: 2
        time: 0.58333343
        value: {x: -0.08464047, y: -0.9145697, z: 0.25907907, w: -0.29879156}
        inSlope: {x: -0.4572044, y: 0.5289142, z: -0.17687397, w: -1.6448376}
        outSlope: {x: -0.4572044, y: 0.5289142, z: -0.17687397, w: -1.6448376}
        tangentMode: 0
      - serializedVersion: 2
        time: 0.6000001
        value: {x: -0.092135005, y: -0.90543354, z: 0.2560854, w: -0.325763}
        inSlope: {x: -0.4394692, y: 0.56259745, z: -0.18536139, w: -1.5873828}
        outSlope: {x: -0.4394692, y: 0.56259745, z: -0.18536139, w: -1.5873828}
        tangentMode: 0
      - serializedVersion: 2
        time: 0.61666673
        value: {x: -0.09928943, y: -0.89581645, z: 0.25290036, w: -0.35170427}
        inSlope: {x: -0.4160233, y: 0.5862206, z: -0.19954178, w: -1.5216222}
        outSlope: {x: -0.4160233, y: 0.5862206, z: -0.19954178, w: -1.5216222}
        tangentMode: 0
      - serializedVersion: 2
        time: 0.6333334
        value: {x: -0.106002435, y: -0.88589287, z: 0.24943401, w: -0.37648368}
        inSlope: {x: -0.38619155, y: 0.59904337, z: -0.21883717, w: -1.4483871}
        outSlope: {x: -0.38619155, y: 0.59904337, z: -0.21883717, w: -1.4483871}
        tangentMode: 0
      - serializedVersion: 2
        time: 0.65000004
        value: {x: -0.11216247, y: -0.87584835, z: 0.2456058, w: -0.3999838}
        inSlope: {x: -0.34941953, y: 0.6004667, z: -0.24269053, w: -1.3684697}
        outSlope: {x: -0.34941953, y: 0.6004667, z: -0.24269053, w: -1.3684697}
        tangentMode: 0
      - serializedVersion: 2
        time: 0.6666667
        value: {x: -0.11764974, y: -0.86587733, z: 0.24134433, w: -0.4220993}
        inSlope: {x: -0.3254944, y: 0.6238073, z: -0.27354312, w: -1.3436682}
        outSlope: {x: -0.3254944, y: 0.6238073, z: -0.27354312, w: -1.3436682}
        tangentMode: 0
      - serializedVersion: 2
        time: 0.68333334
        value: {x: -0.123012275, y: -0.8550548, z: 0.2364877, w: -0.4447727}
        inSlope: {x: -0.32935256, y: 0.698067, z: -0.30950576, w: -1.411217}
        outSlope: {x: -0.32935256, y: 0.698067, z: -0.30950576, w: -1.411217}
        tangentMode: 0
      - serializedVersion: 2
        time: 0.7
        value: {x: -0.12862815, y: -0.84260845, z: 0.23102748, w: -0.4691398}
        inSlope: {x: -0.3337829, y: 0.7798065, z: -0.34009683, w: -1.4748561}
        outSlope: {x: -0.3337829, y: 0.7798065, z: -0.34009683, w: -1.4748561}
        tangentMode: 0
      - serializedVersion: 2
        time: 0.71666664
        value: {x: -0.13413836, y: -0.82906127, z: 0.22515115, w: -0.4939345}
        inSlope: {x: -0.3176561, y: 0.8260568, z: -0.3584959, w: -1.4645144}
        outSlope: {x: -0.3176561, y: 0.8260568, z: -0.3584959, w: -1.4645144}
        tangentMode: 0
      - serializedVersion: 2
        time: 0.7333333
        value: {x: -0.13921668, y: -0.81507325, z: 0.21907763, w: -0.5179569}
        inSlope: {x: -0.2830672, y: 0.8286782, z: -0.362939, w: -1.3844934}
        outSlope: {x: -0.2830672, y: 0.8286782, z: -0.362939, w: -1.3844934}
        tangentMode: 0
      - serializedVersion: 2
        time: 0.74999994
        value: {x: -0.14357392, y: -0.8014387, z: 0.2130532, w: -0.54008424}
        inSlope: {x: -0.23225537, y: 0.7801713, z: -0.35202777, w: -1.2394303}
        outSlope: {x: -0.23225537, y: 0.7801713, z: -0.35202777, w: -1.2394303}
        tangentMode: 0
      - serializedVersion: 2
        time: 0.7666666
        value: {x: -0.14695852, y: -0.78906757, z: 0.20734338, w: -0.5592712}
        inSlope: {x: -0.16735256, y: 0.67455477, z: -0.3249392, w: -1.0335455}
        outSlope: {x: -0.16735256, y: 0.67455477, z: -0.3249392, w: -1.0335455}
        tangentMode: 0
      - serializedVersion: 2
        time: 0.78333324
        value: {x: -0.14915234, y: -0.77895355, z: 0.2022219, w: -0.5745357}
        inSlope: {x: -0.09011202, y: 0.5081879, z: -0.2815884, w: -0.76975715}
        outSlope: {x: -0.09011202, y: 0.5081879, z: -0.2815884, w: -0.76975715}
        tangentMode: 0
      - serializedVersion: 2
        time: 0.7999999
        value: {x: -0.14996225, y: -0.772128, z: 0.19795711, w: -0.58492976}
        inSlope: {x: -0.0016701221, y: 0.28055218, z: -0.22275499, w: -0.4487769}
        outSlope: {x: -0.0016701221, y: 0.28055218, z: -0.22275499, w: -0.4487769}
        tangentMode: 0
      - serializedVersion: 2
        time: 0.81666654
        value: {x: -0.14920801, y: -0.7696018, z: 0.19479674, w: -0.58949494}
        inSlope: {x: 0.09767944, y: -0.00500679, z: -0.15018553, w: -0.06821043}
        outSlope: {x: 0.09767944, y: -0.00500679, z: -0.15018553, w: -0.06821043}
        tangentMode: 0
      - serializedVersion: 2
        time: 0.8333332
        value: {x: -0.14670627, y: -0.7722949, z: 0.19295093, w: -0.58720344}
        inSlope: {x: 0.209892, y: -0.3402868, z: -0.06879381, w: 0.37706888}
        outSlope: {x: 0.209892, y: -0.3402868, z: -0.06879381, w: 0.37706888}
        tangentMode: 0
      - serializedVersion: 2
        time: 0.84999985
        value: {x: -0.14221162, y: -0.7809447, z: 0.19250362, w: -0.576926}
        inSlope: {x: 0.32589585, y: -0.67682743, z: 0.0067104455, w: 0.84735}
        outSlope: {x: 0.32589585, y: -0.67682743, z: 0.0067104455, w: 0.84735}
        tangentMode: 0
      - serializedVersion: 2
        time: 0.8666665
        value: {x: -0.13584308, y: -0.7948558, z: 0.19317462, w: -0.5589585}
        inSlope: {x: 0.4282884, y: -0.94959056, z: 0.06232342, w: 1.2793632}
        outSlope: {x: 0.4282884, y: -0.94959056, z: 0.06232342, w: 1.2793632}
        tangentMode: 0
      - serializedVersion: 2
        time: 0.88333315
        value: {x: -0.12793535, y: -0.8125977, z: 0.19458106, w: -0.5342806}
        inSlope: {x: 0.51074827, y: -1.1357324, z: 0.0953477, w: 1.6517291}
        outSlope: {x: 0.51074827, y: -1.1357324, z: 0.0953477, w: 1.6517291}
        tangentMode: 0
      - serializedVersion: 2
        time: 0.8999998
        value: {x: -0.11881816, y: -0.8327135, z: 0.19635287, w: -0.5039009}
        inSlope: {x: 0.5731667, y: -1.2364709, z: 0.107280865, w: 1.9606063}
        outSlope: {x: 0.5731667, y: -1.2364709, z: 0.107280865, w: 1.9606063}
        tangentMode: 0
      - serializedVersion: 2
        time: 0.91666645
        value: {x: -0.10882981, y: -0.85381335, z: 0.19815709, w: -0.46892712}
        inSlope: {x: 0.6148485, y: -1.2582469, z: 0.10090659, w: 2.1987438}
        outSlope: {x: 0.6148485, y: -1.2582469, z: 0.10090659, w: 2.1987438}
        tangentMode: 0
      - serializedVersion: 2
        time: 0.9333331
        value: {x: -0.098323226, y: -0.874655, z: 0.19971642, w: -0.4306095}
        inSlope: {x: 0.6349354, y: -1.211834, z: 0.079931244, w: 2.357131}
        outSlope: {x: 0.6349354, y: -1.211834, z: 0.079931244, w: 2.357131}
        tangentMode: 0
      - serializedVersion: 2
        time: 0.94999975
        value: {x: -0.08766532, y: -0.8942078, z: 0.20082146, w: -0.39035615}
        inSlope: {x: 0.63277435, y: -1.1112866, z: 0.04860972, w: 2.4266102}
        outSlope: {x: 0.63277435, y: -1.1112866, z: 0.04860972, w: 2.4266102}
        tangentMode: 0
      - serializedVersion: 2
        time: 0.9666664
        value: {x: -0.07723077, y: -0.91169786, z: 0.20133674, w: -0.34972256}
        inSlope: {x: 0.60815954, y: -0.9725842, z: 0.011347096, w: 2.3991346}
        outSlope: {x: 0.60815954, y: -0.9725842, z: 0.011347096, w: 2.3991346}
        tangentMode: 0
      - serializedVersion: 2
        time: 0.98333305
        value: {x: -0.067393355, y: -0.9266272, z: 0.2011997, w: -0.31038508}
        inSlope: {x: 0.56144166, y: -0.8119937, z: -0.02771353, w: 2.268612}
        outSlope: {x: 0.56144166, y: -0.8119937, z: -0.02771353, w: 2.268612}
        tangentMode: 0
      - serializedVersion: 2
        time: 1
        value: {x: -0.058515903, y: -0.9387645, z: 0.20041294, w: -0.2741016}
        inSlope: {x: 0.53263813, y: -0.7282253, z: -0.047204293, w: 2.1769726}
        outSlope: {x: 0.53263813, y: -0.7282253, z: -0.047204293, w: 2.1769726}
        tangentMode: 0
      m_PreInfinity: 2
      m_PostInfinity: 2
      m_RotationOrder: 4
    path: 
  m_CompressedRotationCurves: []
  m_EulerCurves: []
  m_PositionCurves:
  - curve:
      serializedVersion: 2
      m_Curve:
      - serializedVersion: 2
        time: 0
        value: {x: 87.1335, y: 22.3378, z: 85.56993}
        inSlope: {x: -44.033386, y: -0.000034332275, z: 90.93269}
        outSlope: {x: -44.033386, y: -0.000034332275, z: 90.93269}
        tangentMode: 0
      - serializedVersion: 2
        time: 0.16666667
        value: {x: 79.7946, y: 22.337793, z: 100.72538}
        inSlope: {x: -69.57761, y: -0.000022888184, z: 81.58761}
        outSlope: {x: -69.57761, y: -0.000022888184, z: 81.58761}
        tangentMode: 0
      - serializedVersion: 2
        time: 0.33333334
        value: {x: 63.940964, y: 22.337791, z: 112.7658}
        inSlope: {x: -96.78784, y: -5.367102, z: 34.45269}
        outSlope: {x: -96.78784, y: -5.367102, z: 34.45269}
        tangentMode: 0
      - serializedVersion: 2
        time: 0.5
        value: {x: 47.53199, y: 20.54876, z: 112.20961}
        inSlope: {x: -82.58851, y: -11.224405, z: -41.762486}
        outSlope: {x: -82.58851, y: -11.224405, z: -41.762486}
        tangentMode: 0
      - serializedVersion: 2
        time: 0.6666667
        value: {x: 36.41146, y: 18.596323, z: 98.84497}
        inSlope: {x: -29.795055, y: -15.487734, z: -70.490524}
        outSlope: {x: -29.795055, y: -15.487734, z: -70.490524}
        tangentMode: 0
      - serializedVersion: 2
        time: 0.8333333
        value: {x: 37.600304, y: 15.386182, z: 88.71277}
        inSlope: {x: 35.68281, y: -19.008984, z: -7.865122}
        outSlope: {x: 35.68281, y: -19.008984, z: -7.865122}
        tangentMode: 0
      - serializedVersion: 2
        time: 1
        value: {x: 48.305733, y: 12.259995, z: 96.22327}
        inSlope: {x: 64.23257, y: -18.757116, z: 45.062984}
        outSlope: {x: 64.23257, y: -18.757116, z: 45.062984}
        tangentMode: 0
      m_PreInfinity: 2
      m_PostInfinity: 2
      m_RotationOrder: 4
    path: 
  m_ScaleCurves: []
  m_FloatCurves: []
  m_PPtrCurves: []
  m_SampleRate: 60
  m_WrapMode: 0
  m_Bounds:
    m_Center: {x: 0, y: 0, z: 0}
    m_Extent: {x: 0, y: 0, z: 0}
  m_ClipBindingConstant:
    genericBindings:
    - serializedVersion: 2
      path: 0
      attribute: 1
      script: {fileID: 0}
      typeID: 4
      customType: 0
      isPPtrCurve: 0
    - serializedVersion: 2
      path: 0
      attribute: 2
      script: {fileID: 0}
      typeID: 4
      customType: 0
      isPPtrCurve: 0
    pptrCurveMapping: []
  m_AnimationClipSettings:
    serializedVersion: 2
    m_AdditiveReferencePoseClip: {fileID: 0}
    m_AdditiveReferencePoseTime: 0
    m_StartTime: 0
    m_StopTime: 1
    m_OrientationOffsetY: 0
    m_Level: 0
    m_CycleOffset: 0
    m_HasAdditiveReferencePose: 0
    m_LoopTime: 0
    m_LoopBlend: 0
    m_LoopBlendOrientation: 0
    m_LoopBlendPositionY: 0
    m_LoopBlendPositionXZ: 0
    m_KeepOriginalOrientation: 0
    m_KeepOriginalPositionY: 1
    m_KeepOriginalPositionXZ: 0
    m_HeightFromFeet: 0
    m_Mirror: 0
  m_EditorCurves:
  - curve:
      serializedVersion: 2
      m_Curve:
      - serializedVersion: 2
        time: 0
        value: 87.1335
        inSlope: -44.033386
        outSlope: -44.033386
        tangentMode: 34
      - serializedVersion: 2
        time: 0.16666667
        value: 79.7946
        inSlope: -69.57761
        outSlope: -69.57761
        tangentMode: 34
      - serializedVersion: 2
        time: 0.33333334
        value: 63.940964
        inSlope: -96.78784
        outSlope: -96.78784
        tangentMode: 34
      - serializedVersion: 2
        time: 0.5
        value: 47.53199
        inSlope: -82.58851
        outSlope: -82.58851
        tangentMode: 34
      - serializedVersion: 2
        time: 0.6666667
        value: 36.41146
        inSlope: -29.795055
        outSlope: -29.795055
        tangentMode: 34
      - serializedVersion: 2
        time: 0.8333333
        value: 37.600304
        inSlope: 35.68281
        outSlope: 35.68281
        tangentMode: 34
      - serializedVersion: 2
        time: 1
        value: 48.305733
        inSlope: 64.23257
        outSlope: 64.23257
        tangentMode: 34
      m_PreInfinity: 2
      m_PostInfinity: 2
      m_RotationOrder: 4
    attribute: m_LocalPosition.x
    path: 
    classID: 4
    script: {fileID: 0}
  - curve:
      serializedVersion: 2
      m_Curve:
      - serializedVersion: 2
        time: 0
        value: 22.3378
        inSlope: -0.000034332275
        outSlope: -0.000034332275
        tangentMode: 34
      - serializedVersion: 2
        time: 0.16666667
        value: 22.337793
        inSlope: -0.000022888184
        outSlope: -0.000022888184
        tangentMode: 34
      - serializedVersion: 2
        time: 0.33333334
        value: 22.337791
        inSlope: -5.367102
        outSlope: -5.367102
        tangentMode: 34
      - serializedVersion: 2
        time: 0.5
        value: 20.54876
        inSlope: -11.224405
        outSlope: -11.224405
        tangentMode: 34
      - serializedVersion: 2
        time: 0.6666667
        value: 18.596323
        inSlope: -15.487734
        outSlope: -15.487734
        tangentMode: 34
      - serializedVersion: 2
        time: 0.8333333
        value: 15.386182
        inSlope: -19.008984
        outSlope: -19.008984
        tangentMode: 34
      - serializedVersion: 2
        time: 1
        value: 12.259995
        inSlope: -18.757116
        outSlope: -18.757116
        tangentMode: 34
      m_PreInfinity: 2
      m_PostInfinity: 2
      m_RotationOrder: 4
    attribute: m_LocalPosition.y
    path: 
    classID: 4
    script: {fileID: 0}
  - curve:
      serializedVersion: 2
      m_Curve:
      - serializedVersion: 2
        time: 0
        value: 85.56993
        inSlope: 90.93269
        outSlope: 90.93269
        tangentMode: 34
      - serializedVersion: 2
        time: 0.16666667
        value: 100.72538
        inSlope: 81.58761
        outSlope: 81.58761
        tangentMode: 34
      - serializedVersion: 2
        time: 0.33333334
        value: 112.7658
        inSlope: 34.45269
        outSlope: 34.45269
        tangentMode: 34
      - serializedVersion: 2
        time: 0.5
        value: 112.20961
        inSlope: -41.762486
        outSlope: -41.762486
        tangentMode: 34
      - serializedVersion: 2
        time: 0.6666667
        value: 98.84497
        inSlope: -70.490524
        outSlope: -70.490524
        tangentMode: 34
      - serializedVersion: 2
        time: 0.8333333
        value: 88.71277
        inSlope: -7.865122
        outSlope: -7.865122
        tangentMode: 34
      - serializedVersion: 2
        time: 1
        value: 96.22327
        inSlope: 45.062984
        outSlope: 45.062984
        tangentMode: 34
      m_PreInfinity: 2
      m_PostInfinity: 2
      m_RotationOrder: 4
    attribute: m_LocalPosition.z
    path: 
    classID: 4
    script: {fileID: 0}
  - curve:
      serializedVersion: 2
      m_Curve:
      - serializedVersion: 2
        time: 0
        value: 0.17126496
        inSlope: -0.06309718
        outSlope: -0.06309718
        tangentMode: 0
      - serializedVersion: 2
        time: 0.016666668
        value: 0.17021334
        inSlope: -0.05755976
        outSlope: -0.05755976
        tangentMode: 0
      - serializedVersion: 2
        time: 0.033333335
        value: 0.1693463
        inSlope: -0.05142554
        outSlope: -0.05142554
        tangentMode: 0
      - serializedVersion: 2
        time: 0.050000004
        value: 0.16849916
        inSlope: -0.0552316
        outSlope: -0.0552316
        tangentMode: 0
      - serializedVersion: 2
        time: 0.06666667
        value: 0.16750525
        inSlope: -0.0691031
        outSlope: -0.0691031
        tangentMode: 0
      - serializedVersion: 2
        time: 0.083333336
        value: 0.16619572
        inSlope: -0.093171455
        outSlope: -0.093171455
        tangentMode: 0
      - serializedVersion: 2
        time: 0.1
        value: 0.16439953
        inSlope: -0.12753548
        outSlope: -0.12753548
        tangentMode: 0
      - serializedVersion: 2
        time: 0.11666667
        value: 0.16194454
        inSlope: -0.17222282
        outSlope: -0.17222282
        tangentMode: 0
      - serializedVersion: 2
        time: 0.13333334
        value: 0.15865877
        inSlope: -0.2271415
        outSlope: -0.2271415
        tangentMode: 0
      - serializedVersion: 2
        time: 0.15
        value: 0.15437315
        inSlope: -0.2920309
        outSlope: -0.2920309
        tangentMode: 0
      - serializedVersion: 2
        time: 0.16666667
        value: 0.14892441
        inSlope: -0.3615685
        outSlope: -0.3615685
        tangentMode: 0
      - serializedVersion: 2
        time: 0.18333334
        value: 0.14232087
        inSlope: -0.42545828
        outSlope: -0.42545828
        tangentMode: 0
      - serializedVersion: 2
        time: 0.2
        value: 0.13474247
        inSlope: -0.48063445
        outSlope: -0.48063445
        tangentMode: 0
      - serializedVersion: 2
        time: 0.21666667
        value: 0.12629972
        inSlope: -0.52884316
        outSlope: -0.52884316
        tangentMode: 0
      - serializedVersion: 2
        time: 0.23333333
        value: 0.117114365
        inSlope: -0.5694364
        outSlope: -0.5694364
        tangentMode: 0
      - serializedVersion: 2
        time: 0.25
        value: 0.10731851
        inSlope: -0.601851
        outSlope: -0.601851
        tangentMode: 0
      - serializedVersion: 2
        time: 0.26666668
        value: 0.097052656
        inSlope: -0.62562853
        outSlope: -0.62562853
        tangentMode: 0
      - serializedVersion: 2
        time: 0.28333336
        value: 0.08646421
        inSlope: -0.64043677
        outSlope: -0.64043677
        tangentMode: 0
      - serializedVersion: 2
        time: 0.30000004
        value: 0.075704746
        inSlope: -0.64608705
        outSlope: -0.64608705
        tangentMode: 0
      - serializedVersion: 2
        time: 0.31666672
        value: 0.06492796
        inSlope: -0.64253604
        outSlope: -0.64253604
        tangentMode: 0
      - serializedVersion: 2
        time: 0.3333334
        value: 0.05428686
        inSlope: -0.63921803
        outSlope: -0.63921803
        tangentMode: 0
      - serializedVersion: 2
        time: 0.35000008
        value: 0.043620672
        inSlope: -0.6446702
        outSlope: -0.6446702
        tangentMode: 0
      - serializedVersion: 2
        time: 0.36666676
        value: 0.032797836
        inSlope: -0.6487906
        outSlope: -0.6487906
        tangentMode: 0
      - serializedVersion: 2
        time: 0.38333344
        value: 0.021994302
        inSlope: -0.6431843
        outSlope: -0.6431843
        tangentMode: 0
      - serializedVersion: 2
        time: 0.40000013
        value: 0.011358342
        inSlope: -0.6296
        outSlope: -0.6296
        tangentMode: 0
      - serializedVersion: 2
        time: 0.4166668
        value: 0.0010076183
        inSlope: -0.6099392
        outSlope: -0.6099392
        tangentMode: 0
      - serializedVersion: 2
        time: 0.4333335
        value: -0.008972983
        inSlope: -0.5862045
        outSlope: -0.5862045
        tangentMode: 0
      - serializedVersion: 2
        time: 0.45000017
        value: -0.018532548
        inSlope: -0.56043625
        outSlope: -0.56043625
        tangentMode: 0
      - serializedVersion: 2
        time: 0.46666685
        value: -0.027654206
        inSlope: -0.5346601
        outSlope: -0.5346601
        tangentMode: 0
      - serializedVersion: 2
        time: 0.48333353
        value: -0.036354568
        inSlope: -0.5108214
        outSlope: -0.5108214
        tangentMode: 0
      - serializedVersion: 2
        time: 0.5000002
        value: -0.044681586
        inSlope: -0.49426866
        outSlope: -0.49426866
        tangentMode: 0
      - serializedVersion: 2
        time: 0.5166668
        value: -0.052830175
        inSlope: -0.48766887
        outSlope: -0.48766887
        tangentMode: 0
      - serializedVersion: 2
        time: 0.5333335
        value: -0.0609372
        inSlope: -0.48430526
        outSlope: -0.48430526
        tangentMode: 0
      - serializedVersion: 2
        time: 0.55000013
        value: -0.06897367
        inSlope: -0.47873062
        outSlope: -0.47873062
        tangentMode: 0
      - serializedVersion: 2
        time: 0.5666668
        value: -0.07689487
        inSlope: -0.47000462
        outSlope: -0.47000462
        tangentMode: 0
      - serializedVersion: 2
        time: 0.58333343
        value: -0.08464047
        inSlope: -0.4572044
        outSlope: -0.4572044
        tangentMode: 0
      - serializedVersion: 2
        time: 0.6000001
        value: -0.092135005
        inSlope: -0.4394692
        outSlope: -0.4394692
        tangentMode: 0
      - serializedVersion: 2
        time: 0.61666673
        value: -0.09928943
        inSlope: -0.4160233
        outSlope: -0.4160233
        tangentMode: 0
      - serializedVersion: 2
        time: 0.6333334
        value: -0.106002435
        inSlope: -0.38619155
        outSlope: -0.38619155
        tangentMode: 0
      - serializedVersion: 2
        time: 0.65000004
        value: -0.11216247
        inSlope: -0.34941953
        outSlope: -0.34941953
        tangentMode: 0
      - serializedVersion: 2
        time: 0.6666667
        value: -0.11764974
        inSlope: -0.3254944
        outSlope: -0.3254944
        tangentMode: 0
      - serializedVersion: 2
        time: 0.68333334
        value: -0.123012275
        inSlope: -0.32935256
        outSlope: -0.32935256
        tangentMode: 0
      - serializedVersion: 2
        time: 0.7
        value: -0.12862815
        inSlope: -0.3337829
        outSlope: -0.3337829
        tangentMode: 0
      - serializedVersion: 2
        time: 0.71666664
        value: -0.13413836
        inSlope: -0.3176561
        outSlope: -0.3176561
        tangentMode: 0
      - serializedVersion: 2
        time: 0.7333333
        value: -0.13921668
        inSlope: -0.2830672
        outSlope: -0.2830672
        tangentMode: 0
      - serializedVersion: 2
        time: 0.74999994
        value: -0.14357392
        inSlope: -0.23225537
        outSlope: -0.23225537
        tangentMode: 0
      - serializedVersion: 2
        time: 0.7666666
        value: -0.14695852
        inSlope: -0.16735256
        outSlope: -0.16735256
        tangentMode: 0
      - serializedVersion: 2
        time: 0.78333324
        value: -0.14915234
        inSlope: -0.09011202
        outSlope: -0.09011202
        tangentMode: 0
      - serializedVersion: 2
        time: 0.7999999
        value: -0.14996225
        inSlope: -0.0016701221
        outSlope: -0.0016701221
        tangentMode: 0
      - serializedVersion: 2
        time: 0.81666654
        value: -0.14920801
        inSlope: 0.09767944
        outSlope: 0.09767944
        tangentMode: 0
      - serializedVersion: 2
        time: 0.8333332
        value: -0.14670627
        inSlope: 0.209892
        outSlope: 0.209892
        tangentMode: 0
      - serializedVersion: 2
        time: 0.84999985
        value: -0.14221162
        inSlope: 0.32589585
        outSlope: 0.32589585
        tangentMode: 0
      - serializedVersion: 2
        time: 0.8666665
        value: -0.13584308
        inSlope: 0.4282884
        outSlope: 0.4282884
        tangentMode: 0
      - serializedVersion: 2
        time: 0.88333315
        value: -0.12793535
        inSlope: 0.51074827
        outSlope: 0.51074827
        tangentMode: 0
      - serializedVersion: 2
        time: 0.8999998
        value: -0.11881816
        inSlope: 0.5731667
        outSlope: 0.5731667
        tangentMode: 0
      - serializedVersion: 2
        time: 0.91666645
        value: -0.10882981
        inSlope: 0.6148485
        outSlope: 0.6148485
        tangentMode: 0
      - serializedVersion: 2
        time: 0.9333331
        value: -0.098323226
        inSlope: 0.6349354
        outSlope: 0.6349354
        tangentMode: 0
      - serializedVersion: 2
        time: 0.94999975
        value: -0.08766532
        inSlope: 0.63277435
        outSlope: 0.63277435
        tangentMode: 0
      - serializedVersion: 2
        time: 0.9666664
        value: -0.07723077
        inSlope: 0.60815954
        outSlope: 0.60815954
        tangentMode: 0
      - serializedVersion: 2
        time: 0.98333305
        value: -0.067393355
        inSlope: 0.56144166
        outSlope: 0.56144166
        tangentMode: 0
      - serializedVersion: 2
        time: 1
        value: -0.058515903
        inSlope: 0.53263813
        outSlope: 0.53263813
        tangentMode: 0
      m_PreInfinity: 2
      m_PostInfinity: 2
      m_RotationOrder: 4
    attribute: m_LocalRotation.x
    path: 
    classID: 4
    script: {fileID: 0}
  - curve:
      serializedVersion: 2
      m_Curve:
      - serializedVersion: 2
        time: 0
        value: -0.7511198
        inSlope: -0.5926859
        outSlope: -0.5926859
        tangentMode: 0
      - serializedVersion: 2
        time: 0.016666668
        value: -0.7609979
        inSlope: -0.5663055
        outSlope: -0.5663055
        tangentMode: 0
      - serializedVersion: 2
        time: 0.033333335
        value: -0.76999664
        inSlope: -0.5215484
        outSlope: -0.5215484
        tangentMode: 0
      - serializedVersion: 2
        time: 0.050000004
        value: -0.77838284
        inSlope: -0.49227476
        outSlope: -0.49227476
        tangentMode: 0
      - serializedVersion: 2
        time: 0.06666667
        value: -0.7864058
        inSlope: -0.4774708
        outSlope: -0.4774708
        tangentMode: 0
      - serializedVersion: 2
        time: 0.083333336
        value: -0.7942985
        inSlope: -0.4761136
        outSlope: -0.4761136
        tangentMode: 0
      - serializedVersion: 2
        time: 0.1
        value: -0.80227625
        inSlope: -0.4871035
        outSlope: -0.4871035
        tangentMode: 0
      - serializedVersion: 2
        time: 0.11666667
        value: -0.8105353
        inSlope: -0.50921017
        outSlope: -0.50921017
        tangentMode: 0
      - serializedVersion: 2
        time: 0.13333334
        value: -0.8192499
        inSlope: -0.540989
        outSlope: -0.540989
        tangentMode: 0
      - serializedVersion: 2
        time: 0.15
        value: -0.8285683
        inSlope: -0.58069474
        outSlope: -0.58069474
        tangentMode: 0
      - serializedVersion: 2
        time: 0.16666667
        value: -0.8386064
        inSlope: -0.6215233
        outSlope: -0.6215233
        tangentMode: 0
      - serializedVersion: 2
        time: 0.18333334
        value: -0.8492857
        inSlope: -0.650341
        outSlope: -0.650341
        tangentMode: 0
      - serializedVersion: 2
        time: 0.2
        value: -0.86028445
        inSlope: -0.6615991
        outSlope: -0.6615991
        tangentMode: 0
      - serializedVersion: 2
        time: 0.21666667
        value: -0.871339
        inSlope: -0.6576813
        outSlope: -0.6576813
        tangentMode: 0
      - serializedVersion: 2
        time: 0.23333333
        value: -0.88220716
        inSlope: -0.6400109
        outSlope: -0.6400109
        tangentMode: 0
      - serializedVersion: 2
        time: 0.25
        value: -0.8926727
        inSlope: -0.61027026
        outSlope: -0.61027026
        tangentMode: 0
      - serializedVersion: 2
        time: 0.26666668
        value: -0.9025495
        inSlope: -0.57035875
        outSlope: -0.57035875
        tangentMode: 0
      - serializedVersion: 2
        time: 0.28333336
        value: -0.9116847
        inSlope: -0.5223633
        outSlope: -0.5223633
        tangentMode: 0
      - serializedVersion: 2
        time: 0.30000004
        value: -0.91996163
        inSlope: -0.4684957
        outSlope: -0.4684957
        tangentMode: 0
      - serializedVersion: 2
        time: 0.31666672
        value: -0.9273012
        inSlope: -0.41101956
        outSlope: -0.41101956
        tangentMode: 0
      - serializedVersion: 2
        time: 0.3333334
        value: -0.9336623
        inSlope: -0.35896868
        outSlope: -0.35896868
        tangentMode: 0
      - serializedVersion: 2
        time: 0.35000008
        value: -0.93926686
        inSlope: -0.31719065
        outSlope: -0.31719065
        tangentMode: 0
      - serializedVersion: 2
        time: 0.36666676
        value: -0.9442353
        inSlope: -0.27449346
        outSlope: -0.27449346
        tangentMode: 0
      - serializedVersion: 2
        time: 0.38333344
        value: -0.94841665
        inSlope: -0.2233563
        outSlope: -0.2233563
        tangentMode: 0
      - serializedVersion: 2
        time: 0.40000013
        value: -0.95168054
        inSlope: -0.16513988
        outSlope: -0.16513988
        tangentMode: 0
      - serializedVersion: 2
        time: 0.4166668
        value: -0.9539213
        inSlope: -0.10136953
        outSlope: -0.10136953
        tangentMode: 0
      - serializedVersion: 2
        time: 0.4333335
        value: -0.9550595
        inSlope: -0.033668846
        outSlope: -0.033668846
        tangentMode: 0
      - serializedVersion: 2
        time: 0.45000017
        value: -0.9550436
        inSlope: 0.0362688
        outSlope: 0.0362688
        tangentMode: 0
      - serializedVersion: 2
        time: 0.46666685
        value: -0.95385057
        inSlope: 0.10677329
        outSlope: 0.10677329
        tangentMode: 0
      - serializedVersion: 2
        time: 0.48333353
        value: -0.9514845
        inSlope: 0.17623189
        outSlope: 0.17623189
        tangentMode: 0
      - serializedVersion: 2
        time: 0.5000002
        value: -0.9479762
        inSlope: 0.2446928
        outSlope: 0.2446928
        tangentMode: 0
      - serializedVersion: 2
        time: 0.5166668
        value: -0.9433281
        inSlope: 0.3124115
        outSlope: 0.3124115
        tangentMode: 0
      - serializedVersion: 2
        time: 0.5333335
        value: -0.93756247
        inSlope: 0.37671125
        outSlope: 0.37671125
        tangentMode: 0
      - serializedVersion: 2
        time: 0.55000013
        value: -0.93077105
        inSlope: 0.43495458
        outSlope: 0.43495458
        tangentMode: 0
      - serializedVersion: 2
        time: 0.5666668
        value: -0.923064
        inSlope: 0.48604178
        outSlope: 0.48604178
        tangentMode: 0
      - serializedVersion: 2
        time: 0.58333343
        value: -0.9145697
        inSlope: 0.5289142
        outSlope: 0.5289142
        tangentMode: 0
      - serializedVersion: 2
        time: 0.6000001
        value: -0.90543354
        inSlope: 0.56259745
        outSlope: 0.56259745
        tangentMode: 0
      - serializedVersion: 2
        time: 0.61666673
        value: -0.89581645
        inSlope: 0.5862206
        outSlope: 0.5862206
        tangentMode: 0
      - serializedVersion: 2
        time: 0.6333334
        value: -0.88589287
        inSlope: 0.59904337
        outSlope: 0.59904337
        tangentMode: 0
      - serializedVersion: 2
        time: 0.65000004
        value: -0.87584835
        inSlope: 0.6004667
        outSlope: 0.6004667
        tangentMode: 0
      - serializedVersion: 2
        time: 0.6666667
        value: -0.86587733
        inSlope: 0.6238073
        outSlope: 0.6238073
        tangentMode: 0
      - serializedVersion: 2
        time: 0.68333334
        value: -0.8550548
        inSlope: 0.698067
        outSlope: 0.698067
        tangentMode: 0
      - serializedVersion: 2
        time: 0.7
        value: -0.84260845
        inSlope: 0.7798065
        outSlope: 0.7798065
        tangentMode: 0
      - serializedVersion: 2
        time: 0.71666664
        value: -0.82906127
        inSlope: 0.8260568
        outSlope: 0.8260568
        tangentMode: 0
      - serializedVersion: 2
        time: 0.7333333
        value: -0.81507325
        inSlope: 0.8286782
        outSlope: 0.8286782
        tangentMode: 0
      - serializedVersion: 2
        time: 0.74999994
        value: -0.8014387
        inSlope: 0.7801713
        outSlope: 0.7801713
        tangentMode: 0
      - serializedVersion: 2
        time: 0.7666666
        value: -0.78906757
        inSlope: 0.67455477
        outSlope: 0.67455477
        tangentMode: 0
      - serializedVersion: 2
        time: 0.78333324
        value: -0.77895355
        inSlope: 0.5081879
        outSlope: 0.5081879
        tangentMode: 0
      - serializedVersion: 2
        time: 0.7999999
        value: -0.772128
        inSlope: 0.28055218
        outSlope: 0.28055218
        tangentMode: 0
      - serializedVersion: 2
        time: 0.81666654
        value: -0.7696018
        inSlope: -0.00500679
        outSlope: -0.00500679
        tangentMode: 0
      - serializedVersion: 2
        time: 0.8333332
        value: -0.7722949
        inSlope: -0.3402868
        outSlope: -0.3402868
        tangentMode: 0
      - serializedVersion: 2
        time: 0.84999985
        value: -0.7809447
        inSlope: -0.67682743
        outSlope: -0.67682743
        tangentMode: 0
      - serializedVersion: 2
        time: 0.8666665
        value: -0.7948558
        inSlope: -0.94959056
        outSlope: -0.94959056
        tangentMode: 0
      - serializedVersion: 2
        time: 0.88333315
        value: -0.8125977
        inSlope: -1.1357324
        outSlope: -1.1357324
        tangentMode: 0
      - serializedVersion: 2
        time: 0.8999998
        value: -0.8327135
        inSlope: -1.2364709
        outSlope: -1.2364709
        tangentMode: 0
      - serializedVersion: 2
        time: 0.91666645
        value: -0.85381335
        inSlope: -1.2582469
        outSlope: -1.2582469
        tangentMode: 0
      - serializedVersion: 2
        time: 0.9333331
        value: -0.874655
        inSlope: -1.211834
        outSlope: -1.211834
        tangentMode: 0
      - serializedVersion: 2
        time: 0.94999975
        value: -0.8942078
        inSlope: -1.1112866
        outSlope: -1.1112866
        tangentMode: 0
      - serializedVersion: 2
        time: 0.9666664
        value: -0.91169786
        inSlope: -0.9725842
        outSlope: -0.9725842
        tangentMode: 0
      - serializedVersion: 2
        time: 0.98333305
        value: -0.9266272
        inSlope: -0.8119937
        outSlope: -0.8119937
        tangentMode: 0
      - serializedVersion: 2
        time: 1
        value: -0.9387645
        inSlope: -0.7282253
        outSlope: -0.7282253
        tangentMode: 0
      m_PreInfinity: 2
      m_PostInfinity: 2
      m_RotationOrder: 4
    attribute: m_LocalRotation.y
    path: 
    classID: 4
    script: {fileID: 0}
  - curve:
      serializedVersion: 2
      m_Curve:
      - serializedVersion: 2
        time: 0
        value: 0.21422133
        inSlope: 0.41705486
        outSlope: 0.41705486
        tangentMode: 0
      - serializedVersion: 2
        time: 0.016666668
        value: 0.22117224
        inSlope: 0.42127308
        outSlope: 0.42127308
        tangentMode: 0
      - serializedVersion: 2
        time: 0.033333335
        value: 0.22826377
        inSlope: 0.42840016
        outSlope: 0.42840016
        tangentMode: 0
      - serializedVersion: 2
        time: 0.050000004
        value: 0.23545225
        inSlope: 0.43270648
        outSlope: 0.43270648
        tangentMode: 0
      - serializedVersion: 2
        time: 0.06666667
        value: 0.24268731
        inSlope: 0.43380576
        outSlope: 0.43380576
        tangentMode: 0
      - serializedVersion: 2
        time: 0.083333336
        value: 0.24991244
        inSlope: 0.43131444
        outSlope: 0.43131444
        tangentMode: 0
      - serializedVersion: 2
        time: 0.1
        value: 0.25706446
        inSlope: 0.42478952
        outSlope: 0.42478952
        tangentMode: 0
      - serializedVersion: 2
        time: 0.11666667
        value: 0.2640721
        inSlope: 0.41367167
        outSlope: 0.41367167
        tangentMode: 0
      - serializedVersion: 2
        time: 0.13333334
        value: 0.27085352
        inSlope: 0.39724225
        outSlope: 0.39724225
        tangentMode: 0
      - serializedVersion: 2
        time: 0.15
        value: 0.2773135
        inSlope: 0.37456784
        outSlope: 0.37456784
        tangentMode: 0
      - serializedVersion: 2
        time: 0.16666667
        value: 0.2833391
        inSlope: 0.349803
        outSlope: 0.349803
        tangentMode: 0
      - serializedVersion: 2
        time: 0.18333334
        value: 0.2889736
        inSlope: 0.32822016
        outSlope: 0.32822016
        tangentMode: 0
      - serializedVersion: 2
        time: 0.2
        value: 0.29427978
        inSlope: 0.30564758
        outSlope: 0.30564758
        tangentMode: 0
      - serializedVersion: 2
        time: 0.21666667
        value: 0.29916185
        inSlope: 0.27751657
        outSlope: 0.27751657
        tangentMode: 0
      - serializedVersion: 2
        time: 0.23333333
        value: 0.30353034
        inSlope: 0.24431172
        outSlope: 0.24431172
        tangentMode: 0
      - serializedVersion: 2
        time: 0.25
        value: 0.30730557
        inSlope: 0.20669991
        outSlope: 0.20669991
        tangentMode: 0
      - serializedVersion: 2
        time: 0.26666668
        value: 0.31042033
        inSlope: 0.16548143
        outSlope: 0.16548143
        tangentMode: 0
      - serializedVersion: 2
        time: 0.28333336
        value: 0.31282163
        inSlope: 0.12155582
        outSlope: 0.12155582
        tangentMode: 0
      - serializedVersion: 2
        time: 0.30000004
        value: 0.3144722
        inSlope: 0.07590109
        outSlope: 0.07590109
        tangentMode: 0
      - serializedVersion: 2
        time: 0.31666672
        value: 0.31535167
        inSlope: 0.029521262
        outSlope: 0.029521262
        tangentMode: 0
      - serializedVersion: 2
        time: 0.3333334
        value: 0.31545624
        inSlope: -0.02589313
        outSlope: -0.02589313
        tangentMode: 0
      - serializedVersion: 2
        time: 0.35000008
        value: 0.31448856
        inSlope: -0.095765516
        outSlope: -0.095765516
        tangentMode: 0
      - serializedVersion: 2
        time: 0.36666676
        value: 0.31226406
        inSlope: -0.16545014
        outSlope: -0.16545014
        tangentMode: 0
      - serializedVersion: 2
        time: 0.38333344
        value: 0.30897355
        inSlope: -0.22319359
        outSlope: -0.22319359
        tangentMode: 0
      - serializedVersion: 2
        time: 0.40000013
        value: 0.30482426
        inSlope: -0.2680651
        outSlope: -0.2680651
        tangentMode: 0
      - serializedVersion: 2
        time: 0.4166668
        value: 0.30003804
        inSlope: -0.29926455
        outSlope: -0.29926455
        tangentMode: 0
      - serializedVersion: 2
        time: 0.4333335
        value: 0.29484877
        inSlope: -0.31616065
        outSlope: -0.31616065
        tangentMode: 0
      - serializedVersion: 2
        time: 0.45000017
        value: 0.28949934
        inSlope: -0.3183082
        outSlope: -0.3183082
        tangentMode: 0
      - serializedVersion: 2
        time: 0.46666685
        value: 0.2842385
        inSlope: -0.30546314
        outSlope: -0.30546314
        tangentMode: 0
      - serializedVersion: 2
        time: 0.48333353
        value: 0.27931723
        inSlope: -0.27757466
        outSlope: -0.27757466
        tangentMode: 0
      - serializedVersion: 2
        time: 0.5000002
        value: 0.274986
        inSlope: -0.24127923
        outSlope: -0.24127923
        tangentMode: 0
      - serializedVersion: 2
        time: 0.5166668
        value: 0.2712746
        inSlope: -0.21087012
        outSlope: -0.21087012
        tangentMode: 0
      - serializedVersion: 2
        time: 0.5333335
        value: 0.267957
        inSlope: -0.19120413
        outSlope: -0.19120413
        tangentMode: 0
      - serializedVersion: 2
        time: 0.55000013
        value: 0.26490113
        inSlope: -0.17927456
        outSlope: -0.17927456
        tangentMode: 0
      - serializedVersion: 2
        time: 0.5666668
        value: 0.2619812
        inSlope: -0.17466204
        outSlope: -0.17466204
        tangentMode: 0
      - serializedVersion: 2
        time: 0.58333343
        value: 0.25907907
        inSlope: -0.17687397
        outSlope: -0.17687397
        tangentMode: 0
      - serializedVersion: 2
        time: 0.6000001
        value: 0.2560854
        inSlope: -0.18536139
        outSlope: -0.18536139
        tangentMode: 0
      - serializedVersion: 2
        time: 0.61666673
        value: 0.25290036
        inSlope: -0.19954178
        outSlope: -0.19954178
        tangentMode: 0
      - serializedVersion: 2
        time: 0.6333334
        value: 0.24943401
        inSlope: -0.21883717
        outSlope: -0.21883717
        tangentMode: 0
      - serializedVersion: 2
        time: 0.65000004
        value: 0.2456058
        inSlope: -0.24269053
        outSlope: -0.24269053
        tangentMode: 0
      - serializedVersion: 2
        time: 0.6666667
        value: 0.24134433
        inSlope: -0.27354312
        outSlope: -0.27354312
        tangentMode: 0
      - serializedVersion: 2
        time: 0.68333334
        value: 0.2364877
        inSlope: -0.30950576
        outSlope: -0.30950576
        tangentMode: 0
      - serializedVersion: 2
        time: 0.7
        value: 0.23102748
        inSlope: -0.34009683
        outSlope: -0.34009683
        tangentMode: 0
      - serializedVersion: 2
        time: 0.71666664
        value: 0.22515115
        inSlope: -0.3584959
        outSlope: -0.3584959
        tangentMode: 0
      - serializedVersion: 2
        time: 0.7333333
        value: 0.21907763
        inSlope: -0.362939
        outSlope: -0.362939
        tangentMode: 0
      - serializedVersion: 2
        time: 0.74999994
        value: 0.2130532
        inSlope: -0.35202777
        outSlope: -0.35202777
        tangentMode: 0
      - serializedVersion: 2
        time: 0.7666666
        value: 0.20734338
        inSlope: -0.3249392
        outSlope: -0.3249392
        tangentMode: 0
      - serializedVersion: 2
        time: 0.78333324
        value: 0.2022219
        inSlope: -0.2815884
        outSlope: -0.2815884
        tangentMode: 0
      - serializedVersion: 2
        time: 0.7999999
        value: 0.19795711
        inSlope: -0.22275499
        outSlope: -0.22275499
        tangentMode: 0
      - serializedVersion: 2
        time: 0.81666654
        value: 0.19479674
        inSlope: -0.15018553
        outSlope: -0.15018553
        tangentMode: 0
      - serializedVersion: 2
        time: 0.8333332
        value: 0.19295093
        inSlope: -0.06879381
        outSlope: -0.06879381
        tangentMode: 0
      - serializedVersion: 2
        time: 0.84999985
        value: 0.19250362
        inSlope: 0.0067104455
        outSlope: 0.0067104455
        tangentMode: 0
      - serializedVersion: 2
        time: 0.8666665
        value: 0.19317462
        inSlope: 0.06232342
        outSlope: 0.06232342
        tangentMode: 0
      - serializedVersion: 2
        time: 0.88333315
        value: 0.19458106
        inSlope: 0.0953477
        outSlope: 0.0953477
        tangentMode: 0
      - serializedVersion: 2
        time: 0.8999998
        value: 0.19635287
        inSlope: 0.107280865
        outSlope: 0.107280865
        tangentMode: 0
      - serializedVersion: 2
        time: 0.91666645
        value: 0.19815709
        inSlope: 0.10090659
        outSlope: 0.10090659
        tangentMode: 0
      - serializedVersion: 2
        time: 0.9333331
        value: 0.19971642
        inSlope: 0.079931244
        outSlope: 0.079931244
        tangentMode: 0
      - serializedVersion: 2
        time: 0.94999975
        value: 0.20082146
        inSlope: 0.04860972
        outSlope: 0.04860972
        tangentMode: 0
      - serializedVersion: 2
        time: 0.9666664
        value: 0.20133674
        inSlope: 0.011347096
        outSlope: 0.011347096
        tangentMode: 0
      - serializedVersion: 2
        time: 0.98333305
        value: 0.2011997
        inSlope: -0.02771353
        outSlope: -0.02771353
        tangentMode: 0
      - serializedVersion: 2
        time: 1
        value: 0.20041294
        inSlope: -0.047204293
        outSlope: -0.047204293
        tangentMode: 0
      m_PreInfinity: 2
      m_PostInfinity: 2
      m_RotationOrder: 4
    attribute: m_LocalRotation.z
    path: 
    classID: 4
    script: {fileID: 0}
  - curve:
      serializedVersion: 2
      m_Curve:
      - serializedVersion: 2
        time: 0
        value: 0.60049695
        inSlope: -0.8904826
        outSlope: -0.8904826
        tangentMode: 0
      - serializedVersion: 2
        time: 0.016666668
        value: 0.58565557
        inSlope: -0.877515
        outSlope: -0.877515
        tangentMode: 0
      - serializedVersion: 2
        time: 0.033333335
        value: 0.57124645
        inSlope: -0.85854816
        outSlope: -0.85854816
        tangentMode: 0
      - serializedVersion: 2
        time: 0.050000004
        value: 0.5570373
        inSlope: -0.8539778
        outSlope: -0.8539778
        tangentMode: 0
      - serializedVersion: 2
        time: 0.06666667
        value: 0.5427805
        inSlope: -0.86462265
        outSlope: -0.86462265
        tangentMode: 0
      - serializedVersion: 2
        time: 0.083333336
        value: 0.52821654
        inSlope: -0.8912391
        outSlope: -0.8912391
        tangentMode: 0
      - serializedVersion: 2
        time: 0.1
        value: 0.51307255
        inSlope: -0.9345836
        outSlope: -0.9345836
        tangentMode: 0
      - serializedVersion: 2
        time: 0.11666667
        value: 0.49706376
        inSlope: -0.9954535
        outSlope: -0.9954535
        tangentMode: 0
      - serializedVersion: 2
        time: 0.13333334
        value: 0.47989076
        inSlope: -1.0747619
        outSlope: -1.0747619
        tangentMode: 0
      - serializedVersion: 2
        time: 0.15
        value: 0.46123835
        inSlope: -1.1735675
        outSlope: -1.1735675
        tangentMode: 0
      - serializedVersion: 2
        time: 0.16666667
        value: 0.44077185
        inSlope: -1.2889428
        outSlope: -1.2889428
        tangentMode: 0
      - serializedVersion: 2
        time: 0.18333334
        value: 0.4182736
        inSlope: -1.4062591
        outSlope: -1.4062591
        tangentMode: 0
      - serializedVersion: 2
        time: 0.2
        value: 0.39389655
        inSlope: -1.5124934
        outSlope: -1.5124934
        tangentMode: 0
      - serializedVersion: 2
        time: 0.21666667
        value: 0.36785716
        inSlope: -1.6052549
        outSlope: -1.6052549
        tangentMode: 0
      - serializedVersion: 2
        time: 0.23333333
        value: 0.34038806
        inSlope: -1.6835333
        outSlope: -1.6835333
        tangentMode: 0
      - serializedVersion: 2
        time: 0.25
        value: 0.3117394
        inSlope: -1.7463033
        outSlope: -1.7463033
        tangentMode: 0
      - serializedVersion: 2
        time: 0.26666668
        value: 0.28217793
        inSlope: -1.7925644
        outSlope: -1.7925644
        tangentMode: 0
      - serializedVersion: 2
        time: 0.28333336
        value: 0.2519872
        inSlope: -1.821403
        outSlope: -1.821403
        tangentMode: 0
      - serializedVersion: 2
        time: 0.30000004
        value: 0.22146444
        inSlope: -1.8320353
        outSlope: -1.8320353
        tangentMode: 0
      - serializedVersion: 2
        time: 0.31666672
        value: 0.1909193
        inSlope: -1.8238147
        outSlope: -1.8238147
        tangentMode: 0
      - serializedVersion: 2
        time: 0.3333334
        value: 0.16067056
        inSlope: -1.8192894
        outSlope: -1.8192894
        tangentMode: 0
      - serializedVersion: 2
        time: 0.35000008
        value: 0.13027626
        inSlope: -1.8449577
        outSlope: -1.8449577
        tangentMode: 0
      - serializedVersion: 2
        time: 0.36666676
        value: 0.09917192
        inSlope: -1.8829951
        outSlope: -1.8829951
        tangentMode: 0
      - serializedVersion: 2
        time: 0.38333344
        value: 0.0675097
        inSlope: -1.911415
        outSlope: -1.911415
        tangentMode: 0
      - serializedVersion: 2
        time: 0.40000013
        value: 0.035458036
        inSlope: -1.9292865
        outSlope: -1.9292865
        tangentMode: 0
      - serializedVersion: 2
        time: 0.4166668
        value: 0.0032000984
        inSlope: -1.9357895
        outSlope: -1.9357895
        tangentMode: 0
      - serializedVersion: 2
        time: 0.4333335
        value: -0.029068334
        inSlope: -1.9302458
        outSlope: -1.9302458
        tangentMode: 0
      - serializedVersion: 2
        time: 0.45000017
        value: -0.061141483
        inSlope: -1.9121244
        outSlope: -1.9121244
        tangentMode: 0
      - serializedVersion: 2
        time: 0.46666685
        value: -0.09280587
        inSlope: -1.8810804
        outSlope: -1.8810804
        tangentMode: 0
      - serializedVersion: 2
        time: 0.48333353
        value: -0.123844214
        inSlope: -1.836942
        outSlope: -1.836942
        tangentMode: 0
      - serializedVersion: 2
        time: 0.5000002
        value: -0.15403727
        inSlope: -1.7961227
        outSlope: -1.7961227
        tangentMode: 0
      - serializedVersion: 2
        time: 0.5166668
        value: -0.18371491
        inSlope: -1.7754457
        outSlope: -1.7754457
        tangentMode: 0
      - serializedVersion: 2
        time: 0.5333335
        value: -0.21321873
        inSlope: -1.7591579
        outSlope: -1.7591579
        tangentMode: 0
      - serializedVersion: 2
        time: 0.55000013
        value: -0.24235345
        inSlope: -1.7314932
        outSlope: -1.7314932
        tangentMode: 0
      - serializedVersion: 2
        time: 0.5666668
        value: -0.27093512
        inSlope: -1.6931447
        outSlope: -1.6931447
        tangentMode: 0
      - serializedVersion: 2
        time: 0.58333343
        value: -0.29879156
        inSlope: -1.6448376
        outSlope: -1.6448376
        tangentMode: 0
      - serializedVersion: 2
        time: 0.6000001
        value: -0.325763
        inSlope: -1.5873828
        outSlope: -1.5873828
        tangentMode: 0
      - serializedVersion: 2
        time: 0.61666673
        value: -0.35170427
        inSlope: -1.5216222
        outSlope: -1.5216222
        tangentMode: 0
      - serializedVersion: 2
        time: 0.6333334
        value: -0.37648368
        inSlope: -1.4483871
        outSlope: -1.4483871
        tangentMode: 0
      - serializedVersion: 2
        time: 0.65000004
        value: -0.3999838
        inSlope: -1.3684697
        outSlope: -1.3684697
        tangentMode: 0
      - serializedVersion: 2
        time: 0.6666667
        value: -0.4220993
        inSlope: -1.3436682
        outSlope: -1.3436682
        tangentMode: 0
      - serializedVersion: 2
        time: 0.68333334
        value: -0.4447727
        inSlope: -1.411217
        outSlope: -1.411217
        tangentMode: 0
      - serializedVersion: 2
        time: 0.7
        value: -0.4691398
        inSlope: -1.4748561
        outSlope: -1.4748561
        tangentMode: 0
      - serializedVersion: 2
        time: 0.71666664
        value: -0.4939345
        inSlope: -1.4645144
        outSlope: -1.4645144
        tangentMode: 0
      - serializedVersion: 2
        time: 0.7333333
        value: -0.5179569
        inSlope: -1.3844934
        outSlope: -1.3844934
        tangentMode: 0
      - serializedVersion: 2
        time: 0.74999994
        value: -0.54008424
        inSlope: -1.2394303
        outSlope: -1.2394303
        tangentMode: 0
      - serializedVersion: 2
        time: 0.7666666
        value: -0.5592712
        inSlope: -1.0335455
        outSlope: -1.0335455
        tangentMode: 0
      - serializedVersion: 2
        time: 0.78333324
        value: -0.5745357
        inSlope: -0.76975715
        outSlope: -0.76975715
        tangentMode: 0
      - serializedVersion: 2
        time: 0.7999999
        value: -0.58492976
        inSlope: -0.4487769
        outSlope: -0.4487769
        tangentMode: 0
      - serializedVersion: 2
        time: 0.81666654
        value: -0.58949494
        inSlope: -0.06821043
        outSlope: -0.06821043
        tangentMode: 0
      - serializedVersion: 2
        time: 0.8333332
        value: -0.58720344
        inSlope: 0.37706888
        outSlope: 0.37706888
        tangentMode: 0
      - serializedVersion: 2
        time: 0.84999985
        value: -0.576926
        inSlope: 0.84735
        outSlope: 0.84735
        tangentMode: 0
      - serializedVersion: 2
        time: 0.8666665
        value: -0.5589585
        inSlope: 1.2793632
        outSlope: 1.2793632
        tangentMode: 0
      - serializedVersion: 2
        time: 0.88333315
        value: -0.5342806
        inSlope: 1.6517291
        outSlope: 1.6517291
        tangentMode: 0
      - serializedVersion: 2
        time: 0.8999998
        value: -0.5039009
        inSlope: 1.9606063
        outSlope: 1.9606063
        tangentMode: 0
      - serializedVersion: 2
        time: 0.91666645
        value: -0.46892712
        inSlope: 2.1987438
        outSlope: 2.1987438
        tangentMode: 0
      - serializedVersion: 2
        time: 0.9333331
        value: -0.4306095
        inSlope: 2.357131
        outSlope: 2.357131
        tangentMode: 0
      - serializedVersion: 2
        time: 0.94999975
        value: -0.39035615
        inSlope: 2.4266102
        outSlope: 2.4266102
        tangentMode: 0
      - serializedVersion: 2
        time: 0.9666664
        value: -0.34972256
        inSlope: 2.3991346
        outSlope: 2.3991346
        tangentMode: 0
      - serializedVersion: 2
        time: 0.98333305
        value: -0.31038508
        inSlope: 2.268612
        outSlope: 2.268612
        tangentMode: 0
      - serializedVersion: 2
        time: 1
        value: -0.2741016
        inSlope: 2.1769726
        outSlope: 2.1769726
        tangentMode: 0
      m_PreInfinity: 2
      m_PostInfinity: 2
      m_RotationOrder: 4
    attribute: m_LocalRotation.w
    path: 
    classID: 4
    script: {fileID: 0}
  m_EulerEditorCurves:
  - curve:
      serializedVersion: 2
      m_Curve:
      - serializedVersion: 2
        time: 0
        value: 31.836685
        inSlope: 33.002472
        outSlope: 33.002472
        tangentMode: 34
      - serializedVersion: 2
        time: 0.16666667
        value: 37.337097
        inSlope: 16.501328
        outSlope: 16.501328
        tangentMode: 34
      - serializedVersion: 2
        time: 0.33333334
        value: 37.337128
        inSlope: -14.953996
        outSlope: -14.953996
        tangentMode: 34
      - serializedVersion: 2
        time: 0.5
        value: 32.352432
        inSlope: -18.56369
        outSlope: -18.56369
        tangentMode: 34
      - serializedVersion: 2
        time: 0.6666667
        value: 31.149231
        inSlope: -12.891542
        outSlope: -12.891542
        tangentMode: 34
      - serializedVersion: 2
        time: 0.8333333
        value: 28.055252
        inSlope: -21.142181
        outSlope: -21.142181
        tangentMode: 34
      - serializedVersion: 2
        time: 1
        value: 24.101837
        inSlope: -23.720488
        outSlope: -23.720488
        tangentMode: 34
      m_PreInfinity: 2
      m_PostInfinity: 2
      m_RotationOrder: 4
    attribute: localEulerAnglesBaked.x
    path: 
    classID: 4
    script: {fileID: 0}
  - curve:
      serializedVersion: 2
      m_Curve:
      - serializedVersion: 2
        time: 0
        value: -102.71753
        inSlope: -130.9779
        outSlope: -130.9779
        tangentMode: 34
      - serializedVersion: 2
        time: 0.16666667
        value: -124.54718
        inSlope: -173.26236
        outSlope: -173.26236
        tangentMode: 34
      - serializedVersion: 2
        time: 0.33333334
        value: -160.47165
        inSlope: -221.73459
        outSlope: -221.73459
        tangentMode: 34
      - serializedVersion: 2
        time: 0.5
        value: -198.45871
        inSlope: -214.51538
        outSlope: -214.51538
        tangentMode: 34
      - serializedVersion: 2
        time: 0.6666667
        value: -231.97678
        inSlope: -168.10602
        outSlope: -168.10602
        tangentMode: 34
      - serializedVersion: 2
        time: 0.8333333
        value: -254.49405
        inSlope: 58.26944
        outSlope: 58.26944
        tangentMode: 34
      - serializedVersion: 2
        time: 1
        value: -212.55362
        inSlope: 251.64255
        outSlope: 251.64255
        tangentMode: 34
      m_PreInfinity: 2
      m_PostInfinity: 2
      m_RotationOrder: 4
    attribute: localEulerAnglesBaked.y
    path: 
    classID: 4
    script: {fileID: 0}
  - curve:
      serializedVersion: 2
      m_Curve:
      - serializedVersion: 2
        time: 0
        value: -0.00016784668
        inSlope: 0.000091552734
        outSlope: 0.000091552734
        tangentMode: 34
      - serializedVersion: 2
        time: 0.16666667
        value: -0.00015258789
        inSlope: 0.000045776367
        outSlope: 0.000045776367
        tangentMode: 34
      - serializedVersion: 2
        time: 0.33333334
        value: -0.00015258789
        inSlope: 0.00004577637
        outSlope: 0.00004577637
        tangentMode: 34
      - serializedVersion: 2
        time: 0.5
        value: -0.0001373291
        inSlope: 0.00004577637
        outSlope: 0.00004577637
        tangentMode: 34
      - serializedVersion: 2
        time: 0.6666667
        value: -0.0001373291
        inSlope: 0.000045776378
        outSlope: 0.000045776378
        tangentMode: 34
      - serializedVersion: 2
        time: 0.8333333
        value: -0.00012207031
        inSlope: 0.00009155274
        outSlope: 0.00009155274
        tangentMode: 34
      - serializedVersion: 2
        time: 1
        value: -0.00010681152
        inSlope: 0.00009155273
        outSlope: 0.00009155273
        tangentMode: 34
      m_PreInfinity: 2
      m_PostInfinity: 2
      m_RotationOrder: 4
    attribute: localEulerAnglesBaked.z
    path: 
    classID: 4
    script: {fileID: 0}
  m_HasGenericRootTransform: 1
  m_HasMotionFloatCurves: 0
  m_GenerateMotionCurves: 0
  m_Events:
  - time: 0.98333335
    functionName: ActivateEventTimer
    data: INGAMEDIALOG4
    objectReferenceParameter: {fileID: 0}
    floatParameter: 0
    intParameter: 0
    messageOptions: 0
  - time: 1
    functionName: FinishAnimation
    data: 
    objectReferenceParameter: {fileID: 0}
    floatParameter: 0
    intParameter: 0
    messageOptions: 0
