%YAML 1.1
%TAG !u! tag:unity3d.com,2011:
--- !u!1045 &1
EditorBuildSettings:
  m_ObjectHideFlags: 0
  serializedVersion: 2
  m_Scenes:
  - enabled: 1
    path: Assets/01. Scenes/MainMenuFull.unity
    guid: 2bbb46c0a018df84c8cde149d199d8dd
  - enabled: 1
    path: Assets/01. Scenes/IntroFull.unity
    guid: 358861c48b0abe242b538daf2e67babb
  - enabled: 1
    path: Assets/01. Scenes/Level1Full.unity
    guid: 9a2b9f17dd8707a40b3682f853ed8937
  - enabled: 1
    path: Assets/01. Scenes/Level2Full.unity
    guid: 46c52dee83d4c234381f2d7f3ff20d30
  - enabled: 1
    path: Assets/01. Scenes/Level3Full.unity
    guid: 6f6eb3897970994458e6f89426feac26
  - enabled: 1
    path: Assets/01. Scenes/EndCredits.unity
    guid: 00000000000000000000000000000000
