%YAML 1.1
%TAG !u! tag:unity3d.com,2011:
--- !u!114 &11400000
MonoBehaviour:
  m_ObjectHideFlags: 0
  m_PrefabParentObject: {fileID: 0}
  m_PrefabInternal: {fileID: 0}
  m_GameObject: {fileID: 0}
  m_Enabled: 1
  m_EditorHideFlags: 0
  m_Script: {fileID: 11500000, guid: 440bad29e1c6cfd44a8d00451851d4fb, type: 3}
  m_Name: CubePatch_0Points
  m_EditorClassIdentifier: 
  pointsList:
  - {x: -81.14193, y: 1.2748177, z: -5.1820364, w: 0.8910806}
  - {x: -81.15486, y: 1.2748175, z: -3.679152, w: 0.67916584}
  - {x: -80.69792, y: 1.274818, z: -7.701177, w: 0.9783042}
  - {x: -80.704666, y: 1.274818, z: -7.0473123, w: 0.88038933}
  - {x: -80.675545, y: 1.2748178, z: -6.5992603, w: 0.90802544}
  - {x: -80.87719, y: 1.2748178, z: -6.1716332, w: 0.9989883}
  - {x: -80.67435, y: 1.2748177, z: -5.607856, w: 0.9202776}
  - {x: -80.71697, y: 1.2748177, z: -5.0226436, w: 0.98649585}
  - {x: -80.81235, y: 1.2748176, z: -4.514095, w: 0.96642375}
  - {x: -80.90507, y: 1.2748176, z: -4.2233896, w: 0.7687324}
  - {x: -80.72409, y: 1.2748175, z: -3.679247, w: 0.9176413}
  - {x: -80.71052, y: 1.2748175, z: -3.2161376, w: 0.97539407}
  - {x: -80.67847, y: 1.2748173, z: -2.4517965, w: 0.58130836}
  - {x: -80.25195, y: 1.274818, z: -7.621205, w: 0.5903516}
  - {x: -80.138565, y: 1.274818, z: -7.118001, w: 0.73897684}
  - {x: -80.26112, y: 1.2748178, z: -6.4123635, w: 0.9123274}
  - {x: -80.383415, y: 1.2748178, z: -6.0494876, w: 0.51287097}
  - {x: -80.28229, y: 1.2748178, z: -5.730437, w: 0.87763107}
  - {x: -80.25568, y: 1.2748177, z: -5.137876, w: 0.5445011}
  - {x: -80.18876, y: 1.2748176, z: -4.682372, w: 0.72330785}
  - {x: -80.223236, y: 1.2748176, z: -4.0209255, w: 0.88330203}
  - {x: -80.266464, y: 1.2748175, z: -3.5750937, w: 0.5190624}
  - {x: -80.44017, y: 1.2748175, z: -3.1899781, w: 0.67723656}
  - {x: -80.44818, y: 1.2748173, z: -2.6033072, w: 0.9810055}
  - {x: -79.802605, y: 1.2748181, z: -7.7519603, w: 0.9975062}
  - {x: -79.63944, y: 1.274818, z: -7.143847, w: 0.76762295}
  - {x: -79.76381, y: 1.2748178, z: -6.5136905, w: 0.9201145}
  - {x: -79.76636, y: 1.2748178, z: -6.0352535, w: 0.9751832}
  - {x: -79.75445, y: 1.2748177, z: -5.6511273, w: 0.8435773}
  - {x: -79.6388, y: 1.2748177, z: -5.1720867, w: 0.8527445}
  - {x: -79.72789, y: 1.2748176, z: -4.403118, w: 0.540001}
  - {x: -79.535126, y: 1.2748176, z: -4.132266, w: 0.8810659}
  - {x: -79.75144, y: 1.2748175, z: -3.5142164, w: 0.91791594}
  - {x: -79.74941, y: 1.2748175, z: -3.1703386, w: 0.5689702}
  - {x: -79.66252, y: 1.2748173, z: -2.6659544, w: 0.8805376}
  - {x: -79.24126, y: 1.274818, z: -7.4637523, w: 0.60048145}
  - {x: -79.114395, y: 1.274818, z: -7.068226, w: 0.7521695}
  - {x: -79.44496, y: 1.2748178, z: -6.643991, w: 0.83862317}
  - {x: -79.33267, y: 1.2748178, z: -6.087026, w: 0.717711}
  - {x: -79.398575, y: 1.2748177, z: -5.605446, w: 0.51366425}
  - {x: -79.184746, y: 1.2748177, z: -5.2648225, w: 0.78383017}
  - {x: -79.09301, y: 1.2748176, z: -4.688032, w: 0.57326794}
  - {x: -79.38406, y: 1.2748176, z: -4.1374273, w: 0.6630441}
  - {x: -79.18193, y: 1.2748175, z: -3.5360224, w: 0.7780807}
  - {x: -79.11025, y: 1.2748175, z: -3.1646633, w: 0.9479755}
  - {x: -79.36806, y: 1.2748175, z: -2.7942748, w: 0.52894765}
  - {x: -78.881775, y: 1.274818, z: -7.58309, w: 0.6508149}
  - {x: -78.80364, y: 1.274818, z: -7.096102, w: 0.89097035}
  - {x: -78.87538, y: 1.274818, z: -6.7543464, w: 0.98678935}
  - {x: -78.63156, y: 1.2748178, z: -6.1061225, w: 0.91131485}
  - {x: -78.7229, y: 1.2748177, z: -5.578811, w: 0.6517459}
  - {x: -78.64368, y: 1.2748177, z: -5.2056246, w: 0.82644075}
  - {x: -78.848236, y: 1.2748176, z: -4.49591, w: 0.6263521}
  - {x: -78.65635, y: 1.2748176, z: -4.031143, w: 0.61231905}
  - {x: -78.67454, y: 1.2748175, z: -3.4715142, w: 0.742013}
  - {x: -78.719215, y: 1.2748175, z: -3.0985837, w: 0.676981}
  - {x: -78.756516, y: 1.2748175, z: -2.7168512, w: 0.8986773}
  - {x: -78.29774, y: 1.2748181, z: -7.713799, w: 0.7356694}
  - {x: -78.0645, y: 1.274818, z: -7.042141, w: 0.6750674}
  - {x: -78.35626, y: 1.2748178, z: -6.678929, w: 0.7161577}
  - {x: -78.09758, y: 1.2748178, z: -6.1594, w: 0.6032049}
  - {x: -78.28379, y: 1.2748178, z: -5.8154364, w: 0.6446986}
  - {x: -78.11022, y: 1.2748177, z: -5.164898, w: 0.65962946}
  - {x: -78.16315, y: 1.2748177, z: -4.7353587, w: 0.59488183}
  - {x: -78.153175, y: 1.2748176, z: -4.112464, w: 0.71860945}
  - {x: -78.407684, y: 1.2748175, z: -3.6661718, w: 0.95196044}
  - {x: -78.19526, y: 1.2748175, z: -3.1148055, w: 0.75192475}
  - {x: -78.33822, y: 1.2748173, z: -2.5841494, w: 0.7913935}
  - {x: -77.68535, y: 1.274818, z: -7.6145887, w: 0.6157557}
  - {x: -77.75964, y: 1.274818, z: -7.321823, w: 0.6917739}
  - {x: -77.816956, y: 1.2748178, z: -6.6145363, w: 0.67493224}
  - {x: -77.72122, y: 1.2748178, z: -5.8822503, w: 0.5950716}
  - {x: -77.71069, y: 1.2748177, z: -5.530365, w: 0.76437104}
  - {x: -77.726135, y: 1.2748177, z: -5.254021, w: 0.75994}
  - {x: -77.634544, y: 1.2748176, z: -4.536632, w: 0.62030727}
  - {x: -77.843956, y: 1.2748176, z: -3.9972215, w: 0.6107398}
  - {x: -77.707, y: 1.2748176, z: -3.7244592, w: 0.5930692}
  - {x: -77.77107, y: 1.2748175, z: -3.3527353, w: 0.8170139}
  - {x: -77.62595, y: 1.2748175, z: -2.7749987, w: 0.63749874}
  - {x: -77.2485, y: 1.2748181, z: -8.028509, w: 0.75441873}
  - {x: -77.19211, y: 1.274818, z: -7.501588, w: 0.50934935}
  - {x: -77.16608, y: 1.274818, z: -7.053499, w: 0.78979075}
  - {x: -77.43201, y: 1.2748178, z: -6.4532676, w: 0.78810084}
  - {x: -77.28853, y: 1.2748178, z: -6.0755205, w: 0.5980902}
  - {x: -77.288826, y: 1.2748177, z: -5.560934, w: 0.96307904}
  - {x: -77.418076, y: 1.2748177, z: -5.2114224, w: 0.92526466}
  - {x: -77.33988, y: 1.2748176, z: -4.545254, w: 0.65831566}
  - {x: -77.24792, y: 1.2748176, z: -4.0099325, w: 0.7634183}
  - {x: -77.217255, y: 1.2748175, z: -3.6364348, w: 0.947931}
  - {x: -77.155174, y: 1.2748175, z: -3.0094874, w: 0.70996153}
  - {x: -77.21015, y: 1.2748173, z: -2.6035426, w: 0.83273655}
  - {x: -76.73116, y: 1.2748181, z: -8.011255, w: 0.81806016}
  - {x: -76.75574, y: 1.274818, z: -7.694203, w: 0.9067898}
  - {x: -76.88734, y: 1.274818, z: -7.0471315, w: 0.6680739}
  - {x: -76.7018, y: 1.2748178, z: -6.4628983, w: 0.5482607}
  - {x: -76.94765, y: 1.2748178, z: -6.250982, w: 0.63907254}
  - {x: -76.63788, y: 1.2748177, z: -5.586854, w: 0.5689529}
  - {x: -76.62001, y: 1.2748177, z: -5.068786, w: 0.63478196}
  - {x: -76.73128, y: 1.2748176, z: -4.495804, w: 0.9320341}
  - {x: -76.9887, y: 1.2748176, z: -4.1183443, w: 0.9177247}
  - {x: -76.8829, y: 1.2748175, z: -3.615788, w: 0.90925384}
  - {x: -76.72677, y: 1.2748175, z: -3.252322, w: 0.81432974}
  - {x: -76.76383, y: 1.2748175, z: -2.8522565, w: 0.5805133}
  - {x: -76.34194, y: 1.2748181, z: -8.077446, w: 0.7988373}
  - {x: -76.4284, y: 1.274818, z: -7.6920204, w: 0.52262783}
  - {x: -76.25913, y: 1.274818, z: -6.9578815, w: 0.728552}
  - {x: -76.35425, y: 1.2748178, z: -6.6426287, w: 0.85064703}
  - {x: -76.258286, y: 1.2748178, z: -6.1623006, w: 0.94050586}
  - {x: -76.21257, y: 1.2748177, z: -5.4984217, w: 0.557866}
  - {x: -76.2208, y: 1.2748177, z: -5.3085737, w: 0.6327231}
  - {x: -76.2146, y: 1.2748177, z: -4.8159146, w: 0.8410447}
  - {x: -76.20168, y: 1.2748176, z: -4.098763, w: 0.64938116}
  - {x: -76.25866, y: 1.2748175, z: -3.4070296, w: 0.8129467}
  - {x: -76.46947, y: 1.2748175, z: -3.1073039, w: 0.6469227}
  - {x: -76.222855, y: 1.2748173, z: -2.6659777, w: 0.7219753}
  - {x: -75.79448, y: 1.274818, z: -7.681697, w: 0.8843111}
  - {x: -75.60198, y: 1.274818, z: -7.106676, w: 0.50578964}
  - {x: -75.76923, y: 1.274818, z: -6.7230268, w: 0.69486356}
  - {x: -75.67608, y: 1.2748178, z: -5.983124, w: 0.7148622}
  - {x: -75.744385, y: 1.2748178, z: -5.8448057, w: 0.65111494}
  - {x: -75.753044, y: 1.2748177, z: -5.335858, w: 0.87460226}
  - {x: -75.80347, y: 1.2748176, z: -4.578633, w: 0.67599034}
  - {x: -75.582565, y: 1.2748176, z: -4.0417843, w: 0.83629334}
  - {x: -75.627014, y: 1.2748176, z: -3.7922041, w: 0.6314781}
  - {x: -75.56526, y: 1.2748175, z: -3.1089232, w: 0.57137126}
  - {x: -75.98827, y: 1.2748173, z: -2.655093, w: 0.8189783}
  - {x: -75.28311, y: 1.274818, z: -7.462567, w: 0.64007354}
  - {x: -75.32395, y: 1.274818, z: -7.214299, w: 0.8117354}
  - {x: -75.353745, y: 1.2748178, z: -6.5473332, w: 0.63762975}
  - {x: -75.122795, y: 1.2748178, z: -6.076035, w: 0.99765354}
  - {x: -75.02788, y: 1.2748177, z: -5.5940905, w: 0.77614164}
  - {x: -75.192314, y: 1.2748177, z: -5.128786, w: 0.7947589}
  - {x: -75.28421, y: 1.2748177, z: -4.7195377, w: 0.66645336}
  - {x: -75.26508, y: 1.2748176, z: -4.294483, w: 0.8143776}
  - {x: -75.25369, y: 1.2748175, z: -3.43469, w: 0.6314173}
  - {x: -75.19177, y: 1.2748175, z: -3.0778692, w: 0.7410631}
  - {x: -75.32374, y: 1.2748173, z: -2.4098358, w: 0.6228664}
  - {x: -74.76603, y: 1.274818, z: -7.373787, w: 0.59929365}
  - {x: -74.7202, y: 1.274818, z: -7.279955, w: 0.63354063}
  - {x: -74.9488, y: 1.2748178, z: -6.5879107, w: 0.555126}
  - {x: -74.72194, y: 1.2748178, z: -5.995398, w: 0.9068692}
  - {x: -74.56512, y: 1.2748177, z: -5.5721555, w: 0.8024572}
  - {x: -74.90117, y: 1.2748177, z: -4.9991903, w: 0.5657394}
  - {x: -74.7458, y: 1.2748176, z: -4.6509757, w: 0.73172855}
  - {x: -74.67127, y: 1.2748176, z: -4.1073303, w: 0.74363923}
  - {x: -74.80885, y: 1.2748175, z: -3.6734657, w: 0.9713986}
  - {x: -74.573685, y: 1.2748175, z: -3.092118, w: 0.750541}
  - {x: -74.93655, y: 1.2748173, z: -2.6036816, w: 0.9757003}
  - {x: -74.11346, y: 1.274818, z: -7.6171865, w: 0.66132367}
  - {x: -74.276146, y: 1.274818, z: -7.2118826, w: 0.97247833}
  - {x: -74.15714, y: 1.2748178, z: -6.6405625, w: 0.6563314}
  - {x: -74.06801, y: 1.2748178, z: -6.1472254, w: 0.7221793}
  - {x: -74.161156, y: 1.2748177, z: -5.7004137, w: 0.7047665}
  - {x: -74.14415, y: 1.2748177, z: -4.9207306, w: 0.9058724}
  - {x: -74.30449, y: 1.2748176, z: -4.6916265, w: 0.87627083}
  - {x: -74.13576, y: 1.2748176, z: -4.0175037, w: 0.55428636}
  - {x: -74.23066, y: 1.2748175, z: -3.6603208, w: 0.56408024}
  - {x: -74.183, y: 1.2748175, z: -3.050583, w: 0.6791192}
  - {x: -74.18908, y: 1.2748175, z: -2.7152061, w: 0.55921143}
  - {x: -73.7427, y: 1.274818, z: -7.4661074, w: 0.7904891}
  - {x: -73.79937, y: 1.274818, z: -6.9902225, w: 0.60196346}
  - {x: -73.72687, y: 1.2748178, z: -6.6469073, w: 0.5631196}
  - {x: -73.8455, y: 1.2748178, z: -6.314089, w: 0.88516176}
  - {x: -73.707054, y: 1.2748177, z: -5.6593924, w: 0.70140254}
  - {x: -73.778175, y: 1.2748177, z: -5.1434317, w: 0.9604689}
  - {x: -73.75933, y: 1.2748176, z: -4.500227, w: 0.55958337}
  - {x: -73.76306, y: 1.2748176, z: -4.093114, w: 0.65375006}
  - {x: -73.67193, y: 1.2748176, z: -3.7541523, w: 0.5700798}
  - {x: -73.76083, y: 1.2748175, z: -3.0834045, w: 0.6822666}
  - {x: -73.83605, y: 1.2748175, z: -2.7583332, w: 0.61229634}
  - {x: -73.23308, y: 1.274818, z: -7.611309, w: 0.64448726}
  - {x: -73.31907, y: 1.274818, z: -7.143406, w: 0.5218152}
  - {x: -73.11482, y: 1.274818, z: -6.721313, w: 0.9374312}
  - {x: -73.08948, y: 1.2748178, z: -6.110257, w: 0.685971}
  - {x: -73.12889, y: 1.2748177, z: -5.6969233, w: 0.96995395}
  - {x: -73.25448, y: 1.2748177, z: -5.242682, w: 0.9633316}
  - {x: -73.36454, y: 1.2748176, z: -4.4269238, w: 0.73315537}
  - {x: -73.354965, y: 1.2748176, z: -3.9465864, w: 0.5927518}
  - {x: -73.4935, y: 1.2748175, z: -3.6121569, w: 0.8781753}
  - {x: -73.23419, y: 1.2748175, z: -3.236529, w: 0.8494455}
  - {x: -73.31778, y: 1.2748175, z: -2.8255434, w: 0.85320264}
  - {x: -72.69783, y: 1.274818, z: -6.959805, w: 0.6054427}
  - {x: -72.91343, y: 1.2748178, z: -6.4985743, w: 0.7905593}
  - {x: -72.94803, y: 1.2748178, z: -6.140026, w: 0.784773}
  - {x: -72.61263, y: 1.2748177, z: -5.5679913, w: 0.6492915}
  - {x: -72.76472, y: 1.2748177, z: -5.149975, w: 0.5425075}
  - {x: -72.639496, y: 1.2748177, z: -4.703596, w: 0.6993586}
  - {x: -72.794754, y: 1.2748176, z: -4.281659, w: 0.72100854}
  - {x: -72.78395, y: 1.2748175, z: -3.586189, w: 0.58753556}
  - {x: -72.838875, y: 1.2748175, z: -3.161969, w: 0.5279842}
  - {x: -72.40211, y: 1.274818, z: -7.1432114, w: 0.8115525}
  - {x: -72.35737, y: 1.2748178, z: -6.553589, w: 0.7868825}
  - {x: -72.36535, y: 1.2748178, z: -6.233938, w: 0.5027183}
  - {x: -72.3277, y: 1.2748177, z: -5.398976, w: 0.9662439}
  - {x: -72.17523, y: 1.2748177, z: -5.2211075, w: 0.77895105}
  - {x: -72.238945, y: 1.2748176, z: -4.652349, w: 0.5481807}
  - {x: -72.28127, y: 1.2748176, z: -4.112809, w: 0.711956}
  - {x: -72.34643, y: 1.2748175, z: -3.5119665, w: 0.72512484}
  - {x: -72.17937, y: 1.2748175, z: -2.9871926, w: 0.89025956}
  - {x: -72.10609, y: 1.2748173, z: -2.6666281, w: 0.7737255}
  - {x: -71.68292, y: 1.274818, z: -6.9871697, w: 0.59569436}
  - {x: -71.627304, y: 1.2748178, z: -6.6525135, w: 0.53188324}
  - {x: -71.60522, y: 1.2748178, z: -6.1107435, w: 0.5352508}
  - {x: -71.92696, y: 1.2748177, z: -5.484558, w: 0.81551594}
  - {x: -71.85135, y: 1.2748177, z: -5.1846533, w: 0.7114364}
  - {x: -71.634125, y: 1.2748176, z: -4.565048, w: 0.8236815}
  - {x: -71.813614, y: 1.2748176, z: -4.1768293, w: 0.8807326}
  - {x: -71.721405, y: 1.2748175, z: -3.4031477, w: 0.8199964}
  - {x: -71.81685, y: 1.2748175, z: -3.2859795, w: 0.61714625}
  - {x: -71.75797, y: 1.2748173, z: -2.681786, w: 0.8176254}
  - {x: -71.29357, y: 1.274818, z: -7.0815125, w: 0.8885708}
  - {x: -71.06076, y: 1.2748178, z: -6.641038, w: 0.8097167}
  - {x: -71.50236, y: 1.2748178, z: -6.0895424, w: 0.5028014}
  - {x: -71.24825, y: 1.2748177, z: -5.436814, w: 0.5448893}
  - {x: -71.34172, y: 1.2748177, z: -5.091138, w: 0.96976316}
  - {x: -71.35535, y: 1.2748176, z: -4.4841194, w: 0.9030187}
  - {x: -71.33978, y: 1.2748176, z: -4.0999565, w: 0.50379175}
  - {x: -71.26181, y: 1.2748176, z: -3.794655, w: 0.7716818}
  - {x: -71.21878, y: 1.2748175, z: -3.0556355, w: 0.8009815}
  - {x: -71.266525, y: 1.2748173, z: -2.5873373, w: 0.8120624}
  - {x: -70.90443, y: 1.2748178, z: -6.587798, w: 0.9266978}
  - {x: -70.85834, y: 1.2748178, z: -6.2017183, w: 0.6467737}
  - {x: -70.54964, y: 1.2748177, z: -5.6291738, w: 0.79746294}
  - {x: -70.839485, y: 1.2748177, z: -4.882177, w: 0.77948546}
  - {x: -70.98019, y: 1.2748176, z: -4.6726775, w: 0.88724995}
  - {x: -70.67794, y: 1.2748176, z: -4.139283, w: 0.84069926}
  - {x: -70.82819, y: 1.2748175, z: -3.6062288, w: 0.66083074}
  - {x: -70.742645, y: 1.2748175, z: -3.1267035, w: 0.53880316}
  - {x: -70.89842, y: 1.2748173, z: -2.6723118, w: 0.9601156}
  - {x: -70.37976, y: 1.2748178, z: -6.0000615, w: 0.8598172}
  - {x: -70.26666, y: 1.2748177, z: -5.6146235, w: 0.96507746}
  - {x: -70.28395, y: 1.2748177, z: -5.015083, w: 0.88256276}
  - {x: -70.28885, y: 1.2748177, z: -4.800915, w: 0.5009174}
  - {x: -70.20212, y: 1.2748176, z: -4.151807, w: 0.69252}
  - {x: -70.21496, y: 1.2748175, z: -3.5637555, w: 0.7061863}
  - {x: -70.17569, y: 1.2748175, z: -3.1550596, w: 0.6469798}
  - {x: -70.20248, y: 1.2748175, z: -2.7201953, w: 0.60166353}
  - {x: -69.607506, y: 1.2748178, z: -6.1413765, w: 0.6985034}
  - {x: -69.78921, y: 1.2748177, z: -5.4831944, w: 0.72647786}
  - {x: -69.62029, y: 1.2748177, z: -5.1028957, w: 0.8878381}
  - {x: -69.67062, y: 1.2748176, z: -4.474907, w: 0.5763541}
  - {x: -69.70043, y: 1.2748176, z: -4.1015387, w: 0.9336205}
  - {x: -69.824905, y: 1.2748176, z: -3.7595491, w: 0.87744457}
  - {x: -69.873505, y: 1.2748175, z: -3.2730246, w: 0.5196164}
  - {x: -69.626976, y: 1.2748173, z: -2.6115866, w: 0.8666764}
  - {x: -69.20354, y: 1.2748178, z: -5.798044, w: 0.7708998}
  - {x: -69.15706, y: 1.2748177, z: -5.135539, w: 0.6397853}
  - {x: -69.26768, y: 1.2748176, z: -4.5828905, w: 0.59038}
  - {x: -69.34366, y: 1.2748176, z: -4.0405717, w: 0.7838124}
  - {x: -69.14508, y: 1.2748175, z: -3.6363978, w: 0.5039652}
  - {x: -69.42186, y: 1.2748175, z: -3.1408608, w: 0.8727214}
  - {x: -69.26222, y: 1.2748173, z: -2.6282413, w: 0.82002693}
  - {x: -68.76197, y: 1.2748177, z: -5.4347086, w: 0.8079791}
  - {x: -68.654945, y: 1.2748177, z: -4.9932747, w: 0.7079525}
  - {x: -68.92841, y: 1.2748176, z: -4.6751556, w: 0.57054985}
  - {x: -68.695305, y: 1.2748176, z: -4.0301037, w: 0.93798155}
  - {x: -68.79273, y: 1.2748176, z: -3.7577257, w: 0.79319096}
  - {x: -68.86404, y: 1.2748175, z: -3.1184592, w: 0.9339873}
  - {x: -68.82751, y: 1.2748175, z: -2.7165437, w: 0.8984767}
  - {x: -68.137115, y: 1.2748177, z: -5.1086683, w: 0.76720023}
  - {x: -68.138466, y: 1.2748176, z: -4.534144, w: 0.77217567}
  - {x: -68.11666, y: 1.2748176, z: -4.2039747, w: 0.5363999}
  - {x: -68.253075, y: 1.2748176, z: -3.7211974, w: 0.72510505}
  - {x: -68.237816, y: 1.2748175, z: -3.1401894, w: 0.7322278}
  - {x: -68.28223, y: 1.2748173, z: -2.6187177, w: 0.8577805}
  - {x: -67.75272, y: 1.2748176, z: -4.6506386, w: 0.60664296}
  - {x: -67.795296, y: 1.2748176, z: -4.01373, w: 0.63149714}
  - {x: -67.694336, y: 1.2748175, z: -3.6834068, w: 0.9109605}
  - {x: -67.81769, y: 1.2748175, z: -3.0742452, w: 0.68467104}
  - {x: -67.66822, y: 1.2748173, z: -2.665333, w: 0.69458795}
  - {x: -67.44759, y: 1.2748175, z: -3.622236, w: 0.9196296}
  - {x: -67.24574, y: 1.2748175, z: -3.1450436, w: 0.74890316}
  - {x: -67.21414, y: 1.2748175, z: -2.7053478, w: 0.68046534}
  - {x: -66.66072, y: 1.2748173, z: -2.567887, w: 0.5302898}
