%YAML 1.1
%TAG !u! tag:unity3d.com,2011:
--- !u!114 &11400000
MonoBehaviour:
  m_ObjectHideFlags: 0
  m_PrefabParentObject: {fileID: 0}
  m_PrefabInternal: {fileID: 0}
  m_GameObject: {fileID: 0}
  m_Enabled: 1
  m_EditorHideFlags: 0
  m_Script: {fileID: 11500000, guid: 440bad29e1c6cfd44a8d00451851d4fb, type: 3}
  m_Name: Muro_1 (5)_Points
  m_EditorClassIdentifier: 
  pointsList:
  - {x: -127.74938, y: 21.44918, z: -63.67198, w: 0.62757695}
  - {x: -127.59716, y: 21.448977, z: -63.00468, w: 0.91472733}
  - {x: -126.37552, y: 21.499197, z: -65.73288, w: 0.6258855}
  - {x: -126.769, y: 21.489359, z: -64.561646, w: 0.9707157}
  - {x: -127.09412, y: 21.479076, z: -63.86888, w: 0.90753275}
  - {x: -126.84832, y: 21.477415, z: -62.616333, w: 0.9951835}
  - {x: -126.54349, y: 21.48381, z: -61.948685, w: 0.69090664}
  - {x: -126.81757, y: 21.445778, z: -60.91466, w: 0.58677965}
  - {x: -125.72885, y: 21.535322, z: -65.81197, w: 0.96738154}
  - {x: -125.67719, y: 21.538055, z: -64.90355, w: 0.5894559}
  - {x: -125.90432, y: 21.532993, z: -64.24009, w: 0.6852454}
  - {x: -125.498985, y: 21.538363, z: -62.91615, w: 0.6112967}
  - {x: -125.79179, y: 21.512283, z: -61.7517, w: 0.8773854}
  - {x: -125.57375, y: 21.494047, z: -60.51919, w: 0.8003762}
  - {x: -125.9586, y: 21.457487, z: -59.928368, w: 0.70013356}
  - {x: -124.663895, y: 21.46221, z: -68.67926, w: 0.9599601}
  - {x: -124.33654, y: 21.513414, z: -67.881996, w: 0.6122598}
  - {x: -124.37077, y: 21.560438, z: -66.730354, w: 0.98899496}
  - {x: -124.89206, y: 21.560438, z: -66.03196, w: 0.8449814}
  - {x: -124.634865, y: 21.560438, z: -64.79787, w: 0.6051841}
  - {x: -124.50208, y: 21.560438, z: -64.00765, w: 0.52279127}
  - {x: -124.4462, y: 21.560438, z: -62.68472, w: 0.93499964}
  - {x: -124.84985, y: 21.55224, z: -61.747047, w: 0.69252264}
  - {x: -124.273796, y: 21.560438, z: -60.91342, w: 0.6234797}
  - {x: -125.03502, y: 21.504131, z: -59.991817, w: 0.98368514}
  - {x: -123.67979, y: 21.468273, z: -69.04047, w: 0.5489959}
  - {x: -123.58986, y: 21.528591, z: -67.8216, w: 0.9958293}
  - {x: -123.702126, y: 21.560438, z: -66.739105, w: 0.6327467}
  - {x: -123.46676, y: 21.560438, z: -65.87194, w: 0.50019073}
  - {x: -123.56149, y: 21.560438, z: -64.55458, w: 0.8290555}
  - {x: -123.98027, y: 21.560438, z: -64.15972, w: 0.7871382}
  - {x: -123.66009, y: 21.560438, z: -62.731842, w: 0.9728531}
  - {x: -123.91679, y: 21.560438, z: -61.59546, w: 0.57408345}
  - {x: -123.671, y: 21.560438, z: -60.59675, w: 0.5028458}
  - {x: -123.85805, y: 21.554087, z: -59.762905, w: 0.61113715}
  - {x: -123.43984, y: 21.547005, z: -58.870853, w: 0.5639106}
  - {x: -122.392914, y: 21.456999, z: -69.82674, w: 0.9748413}
  - {x: -122.62831, y: 21.500166, z: -68.80606, w: 0.8630196}
  - {x: -122.96061, y: 21.51944, z: -68.273544, w: 0.58770525}
  - {x: -122.6322, y: 21.560438, z: -66.952286, w: 0.85663044}
  - {x: -122.95444, y: 21.560438, z: -65.87365, w: 0.91315466}
  - {x: -122.61977, y: 21.560438, z: -64.303246, w: 0.823945}
  - {x: -122.674286, y: 21.560438, z: -63.019485, w: 0.8066791}
  - {x: -122.68414, y: 21.560438, z: -61.42697, w: 0.51388526}
  - {x: -122.5867, y: 21.560438, z: -60.833103, w: 0.613717}
  - {x: -122.76885, y: 21.560438, z: -60.120457, w: 0.99867606}
  - {x: -122.68967, y: 21.560438, z: -59.22436, w: 0.62817717}
  - {x: -121.73067, y: 21.482983, z: -69.452255, w: 0.6320833}
  - {x: -121.60721, y: 21.526648, z: -68.50363, w: 0.72390735}
  - {x: -121.700066, y: 21.538107, z: -68.23878, w: 0.73252344}
  - {x: -121.50888, y: 21.560438, z: -61.777477, w: 0.6553298}
  - {x: -122.00342, y: 21.560438, z: -60.879246, w: 0.6226116}
  - {x: -121.63751, y: 21.560438, z: -60.285366, w: 0.7618036}
  - {x: -121.39649, y: 21.56044, z: -58.785904, w: 0.9857674}
  - {x: -120.61422, y: 21.46328, z: -70.289246, w: 0.50242543}
  - {x: -120.93145, y: 21.514982, z: -68.98485, w: 0.5488959}
  - {x: -120.51583, y: 21.55003, z: -68.29674, w: 0.538779}
  - {x: -120.683846, y: 21.560438, z: -61.584736, w: 0.790259}
  - {x: -120.624825, y: 21.560438, z: -61.063324, w: 0.557404}
  - {x: -120.70828, y: 21.560438, z: -60.125477, w: 0.9221952}
  - {x: -120.68928, y: 21.560438, z: -59.15361, w: 0.8558836}
  - {x: -120.63648, y: 21.515535, z: -57.540173, w: 0.70950675}
  - {x: -120.13944, y: 21.484596, z: -69.87323, w: 0.81338793}
  - {x: -119.70792, y: 21.535034, z: -68.78377, w: 0.52024806}
  - {x: -119.37947, y: 21.560438, z: -65.97532, w: 0.8691903}
  - {x: -119.61118, y: 21.560438, z: -64.51473, w: 0.7656398}
  - {x: -119.68075, y: 21.560438, z: -63.996265, w: 0.60945135}
  - {x: -119.51468, y: 21.560438, z: -61.8758, w: 0.6227938}
  - {x: -119.78758, y: 21.560438, z: -60.63933, w: 0.6617969}
  - {x: -119.769, y: 21.560438, z: -60.093918, w: 0.6261592}
  - {x: -119.682274, y: 21.56044, z: -58.830368, w: 0.6492177}
  - {x: -119.49852, y: 21.56044, z: -57.953274, w: 0.7810426}
  - {x: -119.744446, y: 21.459637, z: -56.69075, w: 0.9463819}
  - {x: -118.642296, y: 21.49027, z: -69.91517, w: 0.7231579}
  - {x: -118.75434, y: 21.534636, z: -68.93767, w: 0.6530899}
  - {x: -118.52286, y: 21.560438, z: -60.661663, w: 0.8573146}
  - {x: -118.652954, y: 21.56044, z: -60.094078, w: 0.950018}
  - {x: -118.74754, y: 21.56044, z: -59.24326, w: 0.9651424}
  - {x: -118.3757, y: 21.56044, z: -57.993233, w: 0.9818891}
  - {x: -118.66351, y: 21.537903, z: -57.305283, w: 0.60370123}
  - {x: -117.62915, y: 21.498564, z: -69.76635, w: 0.9784362}
  - {x: -117.40827, y: 21.546356, z: -68.756256, w: 0.71127915}
  - {x: -117.72089, y: 21.560438, z: -68.21507, w: 0.8413212}
  - {x: -118.13081, y: 21.560438, z: -61.870075, w: 0.6278424}
  - {x: -117.88763, y: 21.560438, z: -61.21394, w: 0.51794964}
  - {x: -117.36503, y: 21.560438, z: -59.93208, w: 0.5959073}
  - {x: -118.02668, y: 21.56044, z: -58.901917, w: 0.5318539}
  - {x: -117.884445, y: 21.560438, z: -58.088524, w: 0.9053683}
  - {x: -117.60872, y: 21.522495, z: -56.831623, w: 0.91703737}
  - {x: -117.86917, y: 21.459888, z: -55.95959, w: 0.6081502}
  - {x: -116.45842, y: 21.476276, z: -69.72632, w: 0.64488673}
  - {x: -116.66456, y: 21.518433, z: -69.357994, w: 0.60628736}
  - {x: -116.25831, y: 21.560438, z: -68.03149, w: 0.67635524}
  - {x: -116.46213, y: 21.560438, z: -66.730125, w: 0.53605}
  - {x: -116.43037, y: 21.560438, z: -62.897015, w: 0.53073436}
  - {x: -116.50726, y: 21.560438, z: -61.95012, w: 0.60512304}
  - {x: -116.96197, y: 21.56044, z: -60.910072, w: 0.6911763}
  - {x: -117.03455, y: 21.560438, z: -60.00641, w: 0.63363194}
  - {x: -116.48078, y: 21.56044, z: -58.8062, w: 0.89715225}
  - {x: -116.603836, y: 21.560438, z: -57.485474, w: 0.97770303}
  - {x: -116.27675, y: 21.535097, z: -56.787685, w: 0.954653}
  - {x: -116.3603, y: 21.496305, z: -56.081245, w: 0.85926604}
  - {x: -115.46756, y: 21.560436, z: -68.17999, w: 0.9993927}
  - {x: -115.72939, y: 21.560438, z: -66.85535, w: 0.9978899}
  - {x: -115.69978, y: 21.560438, z: -65.94227, w: 0.9190392}
  - {x: -115.664505, y: 21.560438, z: -64.93876, w: 0.897891}
  - {x: -115.89036, y: 21.560438, z: -64.16441, w: 0.7645149}
  - {x: -115.59263, y: 21.560438, z: -62.888275, w: 0.8501926}
  - {x: -115.67829, y: 21.560438, z: -61.84329, w: 0.88911563}
  - {x: -115.33278, y: 21.56044, z: -60.832565, w: 0.8857268}
  - {x: -115.54928, y: 21.56044, z: -59.874424, w: 0.7109426}
  - {x: -115.70628, y: 21.56044, z: -59.07116, w: 0.9082037}
  - {x: -116.15958, y: 21.56044, z: -58.006554, w: 0.8913409}
  - {x: -115.69773, y: 21.543964, z: -56.9132, w: 0.97811}
  - {x: -115.36824, y: 21.501877, z: -55.96405, w: 0.8084843}
  - {x: -114.383705, y: 21.524948, z: -67.975555, w: 0.89162135}
  - {x: -114.682274, y: 21.555578, z: -67.101204, w: 0.8407863}
  - {x: -114.18445, y: 21.555756, z: -65.87702, w: 0.8744597}
  - {x: -114.78365, y: 21.560438, z: -64.99614, w: 0.6662935}
  - {x: -114.49953, y: 21.560438, z: -63.885124, w: 0.6814712}
  - {x: -114.61001, y: 21.560438, z: -63.272766, w: 0.7765645}
  - {x: -115.11894, y: 21.560438, z: -61.919617, w: 0.69552565}
  - {x: -114.91541, y: 21.560438, z: -60.630753, w: 0.5687855}
  - {x: -115.02074, y: 21.560438, z: -59.55314, w: 0.80411303}
  - {x: -114.717896, y: 21.560438, z: -58.96956, w: 0.67714965}
  - {x: -114.83254, y: 21.56044, z: -57.82277, w: 0.84678715}
  - {x: -114.49346, y: 21.537903, z: -56.667473, w: 0.72829485}
  - {x: -114.57202, y: 21.489178, z: -55.59767, w: 0.74381685}
  - {x: -114.58924, y: 21.45939, z: -54.99212, w: 0.50058293}
  - {x: -113.6681, y: 21.49334, z: -67.70935, w: 0.7278918}
  - {x: -113.36271, y: 21.501041, z: -66.92375, w: 0.9350171}
  - {x: -113.72715, y: 21.541836, z: -65.50643, w: 0.8715544}
  - {x: -113.643135, y: 21.543118, z: -65.13523, w: 0.60234076}
  - {x: -113.76623, y: 21.560438, z: -64.00276, w: 0.8948162}
  - {x: -113.50176, y: 21.560438, z: -62.854607, w: 0.8397392}
  - {x: -113.56957, y: 21.560438, z: -61.943554, w: 0.5807496}
  - {x: -113.512054, y: 21.560438, z: -60.971073, w: 0.6546296}
  - {x: -113.96924, y: 21.56044, z: -59.77897, w: 0.8830836}
  - {x: -113.49166, y: 21.56044, z: -58.578236, w: 0.8801163}
  - {x: -113.8282, y: 21.56044, z: -57.761642, w: 0.9652721}
  - {x: -113.743774, y: 21.53603, z: -56.62744, w: 0.7070246}
  - {x: -113.85534, y: 21.489386, z: -55.561234, w: 0.5451152}
  - {x: -114.13289, y: 21.454597, z: -54.798462, w: 0.77008617}
  - {x: -112.644516, y: 21.456823, z: -67.17967, w: 0.84072876}
  - {x: -112.821526, y: 21.497908, z: -65.78979, w: 0.80872524}
  - {x: -112.55751, y: 21.501932, z: -64.89825, w: 0.8483656}
  - {x: -112.954056, y: 21.531067, z: -63.872154, w: 0.89865845}
  - {x: -112.78706, y: 21.534887, z: -62.9448, w: 0.70068073}
  - {x: -112.9169, y: 21.552185, z: -61.838814, w: 0.8914416}
  - {x: -112.56409, y: 21.547504, z: -60.94275, w: 0.85881966}
  - {x: -112.35529, y: 21.546913, z: -60.075966, w: 0.97668666}
  - {x: -112.52911, y: 21.56044, z: -59.101685, w: 0.89227694}
  - {x: -112.441475, y: 21.56044, z: -57.89327, w: 0.5959019}
  - {x: -112.67825, y: 21.531666, z: -56.54494, w: 0.7561637}
  - {x: -112.20131, y: 21.502686, z: -55.86508, w: 0.62001747}
  - {x: -112.566666, y: 21.45755, z: -54.821, w: 0.86240375}
  - {x: -111.63124, y: 21.451147, z: -65.48384, w: 0.7309325}
  - {x: -111.87488, y: 21.468544, z: -65.11008, w: 0.8917963}
  - {x: -111.45499, y: 21.471312, z: -63.763954, w: 0.6759014}
  - {x: -111.57881, y: 21.483746, z: -63.095947, w: 0.5365361}
  - {x: -111.67545, y: 21.502872, z: -61.714207, w: 0.63698757}
  - {x: -111.51498, y: 21.508347, z: -60.55132, w: 0.7198305}
  - {x: -111.68498, y: 21.51771, z: -60.205063, w: 0.89306647}
  - {x: -111.52293, y: 21.521711, z: -59.014374, w: 0.59697527}
  - {x: -111.83599, y: 21.550867, z: -57.865856, w: 0.62919617}
  - {x: -111.899086, y: 21.538925, z: -56.73315, w: 0.97802705}
  - {x: -111.52516, y: 21.503017, z: -55.88652, w: 0.8870384}
  - {x: -111.6626, y: 21.481792, z: -55.378872, w: 0.8503045}
  - {x: -110.85629, y: 21.458912, z: -62.66497, w: 0.5604031}
  - {x: -110.602066, y: 21.468508, z: -60.843765, w: 0.9734103}
  - {x: -110.712, y: 21.477182, z: -60.29994, w: 0.97602624}
  - {x: -110.704475, y: 21.486837, z: -58.85991, w: 0.62955856}
  - {x: -110.385025, y: 21.481403, z: -58.023705, w: 0.6551645}
  - {x: -110.70854, y: 21.505108, z: -57.33135, w: 0.70201707}
  - {x: -110.97517, y: 21.455267, z: -55.510925, w: 0.97126514}
  - {x: -111.03092, y: 21.446798, z: -54.910393, w: 0.99761623}
  - {x: -109.79042, y: 21.446716, z: -59.245018, w: 0.5252469}
  - {x: -109.50193, y: 21.444204, z: -57.89947, w: 0.8135795}
