%YAML 1.1
%TAG !u! tag:unity3d.com,2011:
--- !u!114 &11400000
MonoBehaviour:
  m_ObjectHideFlags: 0
  m_PrefabParentObject: {fileID: 0}
  m_PrefabInternal: {fileID: 0}
  m_GameObject: {fileID: 0}
  m_Enabled: 1
  m_EditorHideFlags: 0
  m_Script: {fileID: 11500000, guid: 440bad29e1c6cfd44a8d00451851d4fb, type: 3}
  m_Name: Muro_1 (9)_Points
  m_EditorClassIdentifier: 
  pointsList:
  - {x: -156.6182, y: 27.05941, z: -77.27715, w: 0.547828}
  - {x: -156.9385, y: 27.049622, z: -76.31855, w: 0.8753289}
  - {x: -157.06499, y: 27.047039, z: -75.442406, w: 0.6261753}
  - {x: -156.98047, y: 27.051441, z: -74.308, w: 0.61606497}
  - {x: -155.71976, y: 27.069057, z: -79.17375, w: 0.67103434}
  - {x: -155.55797, y: 27.089705, z: -78.385574, w: 0.55455554}
  - {x: -155.51213, y: 27.106972, z: -77.30138, w: 0.6729915}
  - {x: -155.87457, y: 27.096699, z: -76.457535, w: 0.5787315}
  - {x: -155.80707, y: 27.108065, z: -75.70238, w: 0.5815302}
  - {x: -155.4411, y: 27.13027, z: -74.34376, w: 0.5812713}
  - {x: -155.74088, y: 27.116928, z: -72.95091, w: 0.6328994}
  - {x: -154.71904, y: 27.106949, z: -79.3922, w: 0.6962018}
  - {x: -154.8711, y: 27.121365, z: -78.209015, w: 0.5104331}
  - {x: -154.82904, y: 27.13027, z: -77.494095, w: 0.7353114}
  - {x: -154.81816, y: 27.13027, z: -76.39683, w: 0.5633562}
  - {x: -154.54391, y: 27.13027, z: -75.33269, w: 0.9966399}
  - {x: -154.78722, y: 27.13027, z: -74.35442, w: 0.58067554}
  - {x: -154.94043, y: 27.13027, z: -73.34587, w: 0.752597}
  - {x: -154.7757, y: 27.110561, z: -72.33917, w: 0.8698151}
  - {x: -154.43695, y: 27.085371, z: -71.42397, w: 0.52614725}
  - {x: -153.79329, y: 27.114843, z: -80.61069, w: 0.9767319}
  - {x: -153.48065, y: 27.13027, z: -79.210526, w: 0.594391}
  - {x: -154.06151, y: 27.13027, z: -78.671425, w: 0.91670907}
  - {x: -153.94258, y: 27.13027, z: -76.99036, w: 0.83061486}
  - {x: -153.79407, y: 27.13027, z: -76.08385, w: 0.9621837}
  - {x: -153.83463, y: 27.13027, z: -75.74632, w: 0.86182946}
  - {x: -153.99225, y: 27.13027, z: -74.60759, w: 0.90056723}
  - {x: -154.26755, y: 27.13027, z: -73.534225, w: 0.830522}
  - {x: -153.75447, y: 27.127714, z: -72.2504, w: 0.7789341}
  - {x: -153.65883, y: 27.112104, z: -71.85346, w: 0.7530525}
  - {x: -153.94688, y: 27.051098, z: -70.4934, w: 0.8043314}
  - {x: -152.84337, y: 27.13027, z: -80.54324, w: 0.50128293}
  - {x: -152.7383, y: 27.13027, z: -79.75022, w: 0.8120961}
  - {x: -152.84566, y: 27.13027, z: -78.35633, w: 0.83724}
  - {x: -152.58379, y: 27.13027, z: -77.77363, w: 0.8773575}
  - {x: -152.84471, y: 27.13027, z: -76.59161, w: 0.7939732}
  - {x: -152.7318, y: 27.13027, z: -75.80905, w: 0.57009315}
  - {x: -152.96104, y: 27.13027, z: -74.049995, w: 0.5316374}
  - {x: -152.91507, y: 27.13027, z: -73.79112, w: 0.5226722}
  - {x: -153.30806, y: 27.13027, z: -72.41074, w: 0.6698538}
  - {x: -152.90309, y: 27.101273, z: -71.403, w: 0.68984663}
  - {x: -151.83748, y: 27.108477, z: -80.96171, w: 0.781873}
  - {x: -151.9416, y: 27.114765, z: -80.83638, w: 0.8611086}
  - {x: -151.943, y: 27.13027, z: -79.066, w: 0.59874105}
  - {x: -151.46323, y: 27.13027, z: -78.5664, w: 0.5200454}
  - {x: -151.83855, y: 27.13027, z: -77.37561, w: 0.64692914}
  - {x: -152.0121, y: 27.13027, z: -76.5591, w: 0.6027074}
  - {x: -151.6373, y: 27.13027, z: -75.58007, w: 0.7750132}
  - {x: -152.02676, y: 27.13027, z: -74.495026, w: 0.6888914}
  - {x: -151.99855, y: 27.13027, z: -73.271774, w: 0.6606449}
  - {x: -151.92693, y: 27.13027, z: -72.73745, w: 0.6873944}
  - {x: -151.77443, y: 27.110497, z: -71.49295, w: 0.54642737}
  - {x: -151.89679, y: 27.049725, z: -70.352455, w: 0.9576903}
  - {x: -150.97548, y: 27.087933, z: -81.33091, w: 0.8344005}
  - {x: -150.40843, y: 27.125359, z: -80.405914, w: 0.785969}
  - {x: -150.70988, y: 27.13027, z: -79.655235, w: 0.82822245}
  - {x: -150.53485, y: 27.13027, z: -78.226326, w: 0.6017859}
  - {x: -150.60037, y: 27.13027, z: -77.39162, w: 0.9810991}
  - {x: -150.74733, y: 27.13027, z: -76.686356, w: 0.9074978}
  - {x: -150.66557, y: 27.13027, z: -75.60608, w: 0.58447886}
  - {x: -151.09776, y: 27.13027, z: -74.39115, w: 0.94681406}
  - {x: -150.93771, y: 27.13027, z: -73.70194, w: 0.6740866}
  - {x: -150.60146, y: 27.13027, z: -72.10408, w: 0.80676496}
  - {x: -150.5658, y: 27.101963, z: -71.39497, w: 0.66188455}
  - {x: -149.37724, y: 27.07897, z: -81.33628, w: 0.55974936}
  - {x: -149.68323, y: 27.120884, z: -80.3906, w: 0.9820773}
  - {x: -149.87627, y: 27.13027, z: -79.21187, w: 0.74933195}
  - {x: -149.86533, y: 27.13027, z: -78.00773, w: 0.59798795}
  - {x: -149.92703, y: 27.13027, z: -77.111404, w: 0.72057617}
  - {x: -149.6336, y: 27.13027, z: -76.569, w: 0.52312547}
  - {x: -150.1649, y: 27.13027, z: -75.365845, w: 0.9691926}
  - {x: -149.97922, y: 27.13027, z: -74.30316, w: 0.6107927}
  - {x: -149.85277, y: 27.130272, z: -72.96644, w: 0.6925795}
  - {x: -150.10915, y: 27.13027, z: -72.34551, w: 0.62917113}
  - {x: -148.88951, y: 27.070961, z: -81.436424, w: 0.9552439}
  - {x: -148.60187, y: 27.1118, z: -80.392006, w: 0.72050524}
  - {x: -148.97354, y: 27.13027, z: -79.25752, w: 0.6007271}
  - {x: -149.09227, y: 27.13027, z: -78.39583, w: 0.5552658}
  - {x: -149.06804, y: 27.13027, z: -77.58615, w: 0.9741959}
  - {x: -148.51051, y: 27.13027, z: -76.668434, w: 0.86286676}
  - {x: -148.82768, y: 27.13027, z: -75.39597, w: 0.94112974}
  - {x: -148.92207, y: 27.13027, z: -74.32627, w: 0.6768395}
  - {x: -149.01186, y: 27.13027, z: -73.460556, w: 0.87616223}
  - {x: -148.82631, y: 27.13027, z: -72.87787, w: 0.6285863}
  - {x: -147.83405, y: 27.113174, z: -80.19649, w: 0.6020502}
  - {x: -147.5633, y: 27.13027, z: -79.53346, w: 0.6625899}
  - {x: -147.769, y: 27.13027, z: -78.253716, w: 0.9024445}
  - {x: -147.86807, y: 27.13027, z: -77.286026, w: 0.9349376}
  - {x: -147.71349, y: 27.13027, z: -76.80837, w: 0.5312711}
  - {x: -148.22766, y: 27.13027, z: -75.283676, w: 0.938096}
  - {x: -147.80316, y: 27.130272, z: -74.26093, w: 0.69794273}
  - {x: -147.5931, y: 27.084488, z: -73.421036, w: 0.7454777}
  - {x: -147.0219, y: 27.10045, z: -80.3329, w: 0.65145326}
  - {x: -146.97844, y: 27.13027, z: -79.17699, w: 0.61831623}
  - {x: -146.45488, y: 27.13027, z: -78.54748, w: 0.72938836}
  - {x: -146.98901, y: 27.13027, z: -77.66364, w: 0.5485672}
  - {x: -146.82765, y: 27.130272, z: -76.24871, w: 0.91304964}
  - {x: -147.30855, y: 27.13027, z: -75.528786, w: 0.8843563}
  - {x: -147.11823, y: 27.116545, z: -74.53368, w: 0.60016865}
  - {x: -146.16753, y: 27.083332, z: -80.49939, w: 0.9121635}
  - {x: -145.55914, y: 27.13027, z: -79.25823, w: 0.65369713}
  - {x: -145.85649, y: 27.13027, z: -78.61107, w: 0.6371474}
  - {x: -145.7865, y: 27.130272, z: -76.93246, w: 0.52415943}
  - {x: -146.01028, y: 27.11948, z: -76.105385, w: 0.8772168}
  - {x: -145.49979, y: 27.071613, z: -75.35173, w: 0.67445505}
  - {x: -144.92445, y: 27.073704, z: -80.38368, w: 0.67262554}
  - {x: -145.25667, y: 27.12548, z: -79.35505, w: 0.64033973}
  - {x: -145.01828, y: 27.130112, z: -78.40456, w: 0.6120491}
  - {x: -144.92255, y: 27.109684, z: -77.48222, w: 0.8861253}
  - {x: -144.39053, y: 27.065596, z: -76.45754, w: 0.60482126}
  - {x: -143.9018, y: 27.048292, z: -80.409454, w: 0.6027015}
  - {x: -143.77702, y: 27.06893, z: -79.36745, w: 0.65222144}
  - {x: -143.76118, y: 27.081303, z: -78.34052, w: 0.6056006}
  - {x: -143.65948, y: 27.056822, z: -77.31197, w: 0.85442066}
  - {x: -142.6817, y: 27.005716, z: -79.44979, w: 0.7090113}
  - {x: -142.92729, y: 27.052948, z: -78.51898, w: 0.99884427}
